{"name": "OSD 16S - 2019",
"project": "OSD",
"description": "Ocean Sampling day 16S 2019",
"owners" : [{"first_name":"Nicolas", "last_name":"Henry","contact_email" : "contact@sb-roscoff.fr"}],
"marker" : "V4",
"campaign": "OSD 2019",
"site" : "World",
"fraction" : [{"0.22 µm" : "0.22"}],
"minimal_identity":"90%",
"version_taxonomy" : "1234",
"taxonomy" : "Silva",
"rank_description": ["Domain", "Phylum", "Class","Order", "Family", "Genus", "Species"],
"pc_parameter": [{"Temperature":"temperature"},
                      {"Salinity":"s"}
                      ],"datatype":"Spatial",
"related_publications":[]}

