{
  "AMPLICON_INDEX": 0,
  "SEQUENCE_INDEX": 1,
  "TAXONOMY_INDEX": 2,
  "IDENTITY_INDEX": 3,
  "EVENT_START_INDEX": 4,
  "TAXONOMY_NAME": "pr2",
  "SAMPLE_ID_INDEX":0,
  "STATION_CODE_INDEX":1,
  "DEPTH_CODE_INDEX":2,
  "DEPTH_MIN_INDEX":3,
  "DEPTH_MAX_INDEX":3,
  "FRACTION_SIZE_INDEX":4,
  "DATE_TIME_INDEX":5,
  "LATITUDE_INDEX":6,
  "LONGITUDE_INDEX":7,
  "EVENT_ID_REGEX": "^(?P<event_id>.*)_(?P<param>02|3)$",
  "DATE_FORMAT" : "%Y-%m-%d",
  "COUNT_DELIMITER":"\t",
  "EVENT_DELIMITER":"\t"}
