// SOMLIT somlit.fr,,,,,,,,,,,,,,,,,,,,,,,,,,,,,,,,,,,,,,,,,
// hydro 87e252420568e7d8,2021-02-17,08:34:58,,,,,,,,,,,,,,,,,,,,,,,,,,,,,,,,,,,,,,,
ID_SITE,DATE,HEURE,COEF_MAREE,MAREE,PROF_TEXT,PROF_NUM,nomSite*,gpsLat*,gpsLong*,T,qT,S,qS,O,qO,PH,qPH,NH4,qNH4,NO3,qNO3,NO2,qNO2,PO4,qPO4,SIOH4,qSIOH4,COP,qCOP,NOP,qNOP,MES,qMES,DN15,qDN15,DC13,qDC13,CHLA,qCHLA,Depth_code,Station_code
//,(yyyy-mm-dd),(hh:mm:ss),-,-,-,m,,(wgs84),(wgs84),°C,,PSU,,ml/l,,,,µmol/l,,µmol/l,,µmol/l,,µmol/l,,µmol/l,,µg/l,,µg/l,,mg/l,,‰,,‰,,µg/l,,,
3,2009-01-07,13:10:00,53.00,PM,F,60.00,Astan,48.7778,-3.9375,9.300,2,35.234,2,6.27,2,8.080,2,0.270,2,10.60,2,0.17,2,0.55,2,4.00,2,149.000,8,26.800,8,3.700,2,999999,9,999999,9,0.76,2,SRF,RA
3,2009-01-07,13:10:00,53.00,PM,S,1.00,Astan,48.7778,-3.9375,9.400,2,35.232,2,6.27,2,8.080,2,0.100,2,9.70,2,0.15,2,0.51,2,3.60,2,104.500,8,10.300,8,3.500,2,6.430,2,-22.580,2,0.57,2,SRF,RA
3,2009-01-20,12:05:00,34.00,PM,F,60.00,Astan,48.7778,-3.9375,9.450,2,35.293,2,6.41,2,8.030,2,0.130,2,9.40,2,0.14,2,0.51,2,3.60,2,126.900,8,23.700,8,3.500,2,999999,9,999999,9,0.47,2,SRF,RA
3,2009-01-20,12:05:00,34.00,PM,S,1.00,Astan,48.7778,-3.9375,9.380,2,35.293,2,6.44,2,8.030,2,0.170,2,8.90,2,0.14,2,0.50,2,3.30,2,208.700,8,27.700,8,6.300,2,4.870,3,-22.470,6,0.83,2,SRF,RA
3,2009-02-05,13:47:00,45.00,PM,F,60.00,Astan,48.7778,-3.9375,8.900,2,35.114,2,6.29,2,8.000,2,0.130,2,8.70,2,0.13,2,0.50,2,4.40,2,178.800,8,28.300,8,4.600,2,999999,9,999999,9,0.76,2,SRF,RA
3,2009-02-05,13:47:00,45.00,PM,S,1.00,Astan,48.7778,-3.9375,8.800,2,35.110,2,6.29,2,8.000,2,0.130,2,9.70,2,0.15,2,0.53,2,5.30,2,94.500,8,11.000,8,3.100,2,2.220,2,-125.970,4,0.90,2,SRF,RA
3,2009-02-18,11:01:00,27.00,PM,F,60.00,Astan,48.7778,-3.9375,8.900,2,35.027,2,6.36,2,8.010,2,0.110,2,11.40,2,0.16,2,0.49,2,6.40,2,87.500,8,19.200,8,2.700,2,999999,9,999999,9,0.56,2,SRF,RA
3,2009-02-18,11:01:00,27.00,PM,S,1.00,Astan,48.7778,-3.9375,8.900,2,35.022,2,6.34,2,8.010,2,0.170,2,10.80,2,0.15,2,0.48,2,5.90,2,999999,8,999999,8,1.800,2,7.140,2,-24.590,2,0.51,2,SRF,RA
3,2009-03-06,12:47:00,42.00,PM,F,60.00,Astan,48.7778,-3.9375,9.500,2,34.892,2,6.36,2,8.040,2,0.080,2,10.30,2,0.15,2,0.44,2,6.20,2,140.800,8,28.000,8,7.300,2,999999,9,999999,9,0.88,2,SRF,RA
3,2009-03-06,12:47:00,42.00,PM,S,1.00,Astan,48.7778,-3.9375,9.100,2,34.881,2,6.39,2,8.020,2,0.120,2,9.70,2,0.14,2,0.44,2,5.80,2,123.200,8,30.300,8,4.800,2,6.360,2,-23.370,2,1.33,2,SRF,RA
3,2009-03-20,12:06:00,24.00,PM,F,60.00,Astan,48.7778,-3.9375,9.680,2,34.926,2,6.37,2,8.030,2,0.110,2,10.70,2,0.20,2,0.44,2,6.50,2,54.300,8,19.300,8,3.800,2,999999,9,999999,9,0.54,2,SRF,RA
3,2009-03-20,12:06:00,24.00,PM,S,1.00,Astan,48.7778,-3.9375,9.800,2,999999,1,6.15,2,8.030,2,0.230,2,10.80,2,0.20,2,0.43,2,6.50,2,101.500,8,23.700,8,0.700,2,7.450,2,-24.140,2,0.61,2,SRF,RA
3,2009-04-03,11:00:00,43.00,PM,F,60.00,Astan,48.7778,-3.9375,9.850,2,34.953,2,6.49,2,8.050,2,0.340,2,8.80,2,0.20,2,0.36,2,4.60,2,136.700,8,33.700,8,3.600,2,999999,9,999999,9,1.46,2,SRF,RA
3,2009-04-03,11:00:00,43.00,PM,S,1.00,Astan,48.7778,-3.9375,9.850,2,34.947,2,6.51,2,8.050,2,0.230,2,9.00,2,0.20,2,0.36,2,4.70,2,158.100,8,12.600,8,1.900,2,7.270,2,-22.210,2,1.51,2,SRF,RA
3,2009-04-16,08:46:00,43.00,PM,F,60.00,Astan,48.7778,-3.9375,10.300,2,35.001,2,6.45,2,8.080,2,0.360,2,7.80,2,0.21,2,0.33,2,3.10,2,162.800,8,34.400,8,4.500,2,999999,9,999999,9,1.39,2,SRF,RA
3,2009-04-16,08:46:00,43.00,PM,S,1.00,Astan,48.7778,-3.9375,10.480,2,34.987,2,6.48,2,8.090,2,0.360,2,7.80,2,0.21,2,0.31,2,3.00,2,158.300,8,38.000,8,3.300,2,7.760,2,-21.400,2,1.46,2,SRF,RA
3,2009-05-04,13:37:00,60.00,PM,F,60.00,Astan,48.7778,-3.9375,11.250,2,35.067,2,6.56,2,8.070,2,0.350,2,4.30,2,0.18,2,0.21,2,2.10,2,166.300,8,34.400,8,4.400,2,999999,9,999999,9,3.13,2,SRF,RA
3,2009-05-04,13:37:00,60.00,PM,S,1.00,Astan,48.7778,-3.9375,11.300,2,35.065,2,6.62,2,8.070,2,0.380,2,4.30,2,0.18,2,0.19,2,2.10,2,181.500,8,35.400,8,2.400,2,7.080,6,-24.450,6,3.06,2,SRF,RA
3,2009-05-18,11:34:00,38.00,PM,F,60.00,Astan,48.7778,-3.9375,11.800,2,35.136,2,6.28,2,8.110,2,1.410,2,1.40,2,0.12,2,0.19,2,2.20,2,129.400,8,29.500,8,2.200,2,999999,9,999999,9,0.83,2,SRF,RA
3,2009-05-18,11:34:00,38.00,PM,S,1.00,Astan,48.7778,-3.9375,12.050,2,35.134,2,6.28,2,8.120,2,1.380,2,1.20,2,0.11,2,0.16,2,2.00,2,144.700,8,34.000,8,5.000,2,8.320,2,-22.940,2,0.63,2,SRF,RA
3,2009-06-02,12:54:00,57.00,PM,F,60.00,Astan,48.7778,-3.9375,12.850,2,35.221,2,6.17,2,8.070,2,0.900,2,2.40,2,0.15,2,0.25,2,2.40,2,129.700,8,23.800,8,4.900,2,999999,9,999999,9,1.28,2,SRF,RA
3,2009-06-02,12:54:00,57.00,PM,S,1.00,Astan,48.7778,-3.9375,13.000,2,35.215,2,6.19,2,8.080,2,0.900,2,2.60,2,0.17,2,0.27,2,2.70,2,146.500,8,30.300,8,3.700,2,8.230,2,-22.190,2,1.37,2,SRF,RA
3,2009-06-16,10:34:00,46.00,PM,F,60.00,Astan,48.7778,-3.9375,13.150,2,35.277,2,6.12,2,8.060,2,0.630,2,2.70,2,0.22,2,0.27,2,2.50,2,83.700,8,21.900,8,3.900,2,999999,9,999999,9,0.67,2,SRF,RA
3,2009-06-16,10:34:00,46.00,PM,S,1.00,Astan,48.7778,-3.9375,13.600,2,35.262,2,6.17,2,8.050,2,0.520,2,2.70,2,0.21,2,0.27,2,2.60,2,999999,8,999999,8,3.300,2,5.870,2,-22.750,2,0.81,2,SRF,RA
3,2009-07-01,12:02:00,49.00,PM,F,60.00,Astan,48.7778,-3.9375,14.150,2,35.314,2,6.25,2,8.080,2,0.570,2,0.70,2,0.13,2,0.19,2,1.50,2,123.000,8,32.300,8,0.600,2,999999,9,999999,9,1.37,2,SRF,RA
3,2009-07-01,12:02:00,49.00,PM,S,1.00,Astan,48.7778,-3.9375,14.500,2,35.309,2,6.32,2,8.080,2,0.410,2,0.70,2,0.12,2,0.18,2,1.60,2,149.100,8,39.000,8,8.500,2,9.490,2,-22.780,2,1.80,2,SRF,RA
3,2009-07-16,10:39:00,48.00,PM,F,60.00,Astan,48.7778,-3.9375,14.900,2,35.325,2,5.96,2,8.070,2,0.550,2,1.00,2,0.16,2,0.21,2,1.90,2,125.500,8,28.500,8,3.100,2,999999,9,999999,9,1.46,2,SRF,RA
3,2009-07-16,10:39:00,48.00,PM,S,1.00,Astan,48.7778,-3.9375,15.000,2,35.323,2,5.96,2,8.070,2,0.580,2,0.90,2,0.15,2,0.20,2,1.90,2,117.900,8,31.100,8,1.100,2,6.660,2,-22.830,2,1.55,2,SRF,RA
3,2009-07-31,12:27:00,36.00,PM,F,60.00,Astan,48.7778,-3.9375,15.150,2,35.314,2,5.63,2,8.050,2,0.780,2,2.10,2,0.39,2,0.24,2,2.60,2,118.400,8,29.200,8,2.200,2,999999,9,999999,9,1.01,2,SRF,RA
3,2009-07-31,12:27:00,36.00,PM,S,1.00,Astan,48.7778,-3.9375,15.700,2,35.323,2,5.66,2,8.030,2,0.780,2,2.00,2,0.33,2,0.22,2,2.50,2,123.000,8,34.100,8,1.000,2,6.990,2,-23.430,2,0.83,2,SRF,RA
3,2009-08-14,09:54:00,49.00,PM,F,60.00,Astan,48.7778,-3.9375,15.750,2,35.321,2,5.64,2,8.030,2,0.710,2,1.90,2,0.41,2,0.21,2,1.90,2,83.100,8,19.000,8,2.600,2,999999,9,999999,9,0.74,2,SRF,RA
3,2009-08-14,09:54:00,49.00,PM,S,1.00,Astan,48.7778,-3.9375,15.750,2,35.313,2,5.56,2,8.020,2,0.740,2,2.20,2,0.46,2,0.23,2,2.10,2,111.600,8,21.400,8,4.800,2,10.130,2,-34.220,4,1.03,2,SRF,RA
3,2009-08-28,10:14:00,35.00,PM,F,60.00,Astan,48.7778,-3.9375,15.900,2,35.335,2,5.42,2,8.050,2,0.340,2,3.00,2,0.61,2,0.25,2,2.10,2,113.800,8,21.600,8,0.900,2,999999,9,999999,9,0.79,2,SRF,RA
3,2009-08-28,10:14:00,35.00,PM,S,1.00,Astan,48.7778,-3.9375,15.850,2,35.336,2,5.43,2,8.040,2,0.400,2,3.10,2,0.61,2,0.27,2,2.30,2,144.000,8,21.100,8,2.300,2,8.260,2,-22.700,2,1.08,2,SRF,RA
3,2009-09-14,12:44:00,45.00,PM,F,60.00,Astan,48.7778,-3.9375,16.100,2,35.337,2,5.50,2,8.020,2,0.450,2,3.20,2,0.59,2,0.29,2,3.00,2,69.400,8,21.400,8,2.700,2,999999,9,999999,9,1.17,2,SRF,RA
3,2009-09-14,12:44:00,45.00,PM,S,1.00,Astan,48.7778,-3.9375,16.100,2,35.344,2,5.52,2,8.020,2,0.440,2,3.20,2,0.59,2,0.29,2,3.00,2,89.600,8,18.200,8,2.500,2,9.810,2,-22.640,2,1.37,2,SRF,RA
3,2009-09-28,12:47:00,30.00,PM,F,60.00,Astan,48.7778,-3.9375,16.200,2,35.318,2,5.32,2,8.030,2,0.360,2,4.40,2,0.96,2,0.35,2,3.10,2,90.800,8,13.600,8,3.600,2,999999,9,999999,9,0.70,2,SRF,RA
3,2009-09-28,12:47:00,30.00,PM,S,1.00,Astan,48.7778,-3.9375,16.950,2,35.231,2,5.47,2,8.030,2,0.360,2,3.20,2,0.56,2,0.28,2,3.60,2,136.400,8,23.200,8,0.200,2,8.290,2,-23.450,2,1.12,2,SRF,RA
3,2009-10-12,10:53:00,43.00,PM,F,60.00,Astan,48.7778,-3.9375,15.500,2,35.323,2,5.35,2,8.030,2,0.120,2,5.60,2,0.65,2,0.39,2,3.00,2,73.100,8,11.100,8,1.100,2,999999,9,999999,9,0.58,2,SRF,RA
3,2009-10-12,10:53:00,43.00,PM,S,1.00,Astan,48.7778,-3.9375,15.750,2,35.309,2,5.36,2,8.020,2,0.230,2,5.60,2,0.73,2,0.39,2,3.10,2,98.800,8,14.600,8,2.300,2,6.380,3,-22.830,2,0.72,2,SRF,RA
3,2009-10-27,11:36:00,30.00,PM,F,60.00,Astan,48.7778,-3.9375,14.800,2,35.338,2,5.39,2,8.010,2,0.190,2,5.60,2,0.23,2,0.39,2,2.80,2,55.400,8,15.300,8,1.400,2,999999,9,999999,9,0.39,2,SRF,RA
3,2009-10-27,11:36:00,30.00,PM,S,1.00,Astan,48.7778,-3.9375,14.900,2,35.331,2,5.43,2,8.020,2,0.210,2,6.30,2,0.31,2,0.42,2,3.20,2,57.200,8,15.200,8,2.800,2,7.070,2,-21.990,2,0.46,2,SRF,RA
3,2009-11-10,10:44:00,52.00,PM,F,60.00,Astan,48.7778,-3.9375,13.450,2,35.333,2,5.72,2,8.040,2,0.140,2,7.60,2,0.35,2,0.50,2,4.30,2,351.900,8,53.400,8,4.100,2,999999,9,999999,9,1.10,2,SRF,RA
3,2009-11-10,10:44:00,52.00,PM,S,1.00,Astan,48.7778,-3.9375,13.350,2,35.313,2,5.70,2,8.040,2,0.150,2,6.90,2,0.30,2,0.46,2,3.90,2,191.600,8,35.100,8,6.000,2,6.590,3,-21.440,2,0.76,2,SRF,RA
3,2009-11-26,11:37:00,37.00,PM,F,60.00,Astan,48.7778,-3.9375,12.900,2,35.237,2,5.87,2,8.030,2,0.090,2,8.70,2,0.30,2,0.55,2,4.50,2,352.100,8,53.600,8,5.300,2,999999,9,999999,9,0.65,2,SRF,RA
3,2009-11-26,11:37:00,37.00,PM,S,1.00,Astan,48.7778,-3.9375,12.800,2,35.236,2,5.87,2,8.050,2,0.120,2,8.70,2,0.31,2,0.53,2,4.50,2,415.900,8,58.500,8,6.200,2,6.520,2,-21.230,2,0.81,2,SRF,RA
3,2009-12-10,11:30:00,56.00,PM,F,60.00,Astan,48.7778,-3.9375,12.150,2,35.220,2,5.89,2,8.030,2,0.080,2,7.80,2,0.11,2,0.47,2,3.70,2,92.400,8,15.200,8,1.200,2,999999,9,999999,9,0.39,2,SRF,RA
3,2009-12-10,11:30:00,56.00,PM,S,1.00,Astan,48.7778,-3.9375,12.150,2,35.224,2,5.90,2,8.040,2,0.110,2,7.40,2,0.09,2,0.45,2,3.60,2,159.200,8,32.800,8,1.500,2,7.620,2,-21.860,2,0.35,2,SRF,RA
3,2009-12-23,08:47:00,53.00,PM,F,60.00,Astan,48.7778,-3.9375,10.950,2,35.187,2,5.99,2,8.100,2,0.080,2,10.20,2,0.14,2,0.52,2,4.60,2,228.200,8,39.700,8,2.900,2,999999,9,999999,9,0.39,2,SRF,RA
3,2009-12-23,08:47:00,53.00,PM,S,1.00,Astan,48.7778,-3.9375,10.950,2,35.201,2,5.99,2,8.100,2,0.080,2,9.90,2,0.13,2,0.50,2,4.40,2,199.500,8,37.900,8,3.500,2,7.870,2,-22.030,2,0.55,2,SRF,RA
3,2010-01-11,14:26:00,50.00,PM,F,60.00,Astan,48.7778,-3.9375,9.050,2,35.177,2,6.28,2,8.070,2,0.090,2,11.00,2,0.14,2,0.40,2,4.60,2,72.987,5,10.412,8,0.300,2,999999,9,999999,9,0.33,2,SRF,RA
3,2010-01-11,14:26:00,50.00,PM,S,1.00,Astan,48.7778,-3.9375,9.200,2,35.202,2,6.27,2,8.070,2,0.090,2,10.40,2,0.15,2,0.38,2,4.50,2,70.698,8,4.795,8,2.500,2,7.011,2,-22.352,2,0.42,2,SRF,RA
3,2010-01-25,11:47:00,39.00,PM,F,60.00,Astan,48.7778,-3.9375,9.450,2,35.196,2,6.25,2,8.000,2,0.090,2,10.60,2,0.13,2,0.35,2,4.50,2,133.771,8,7.050,8,3.400,2,999999,9,999999,9,0.43,2,SRF,RA
3,2010-01-25,11:47:00,39.00,PM,S,1.00,Astan,48.7778,-3.9375,9.350,2,35.191,2,6.26,2,8.000,2,0.110,2,9.60,3,0.13,2,0.40,2,4.00,3,105.521,8,10.789,8,2.800,2,6.920,2,-22.238,2,0.41,2,SRF,RA
3,2010-02-08,12:36:00,34.00,PM,F,60.00,Astan,48.7778,-3.9375,9.300,2,35.156,2,6.32,2,8.080,2,0.080,2,9.90,2,0.17,2,0.33,2,4.50,2,82.600,8,18.917,8,1.600,2,999999,9,999999,9,0.38,2,SRF,RA
3,2010-02-08,12:36:00,34.00,PM,S,1.00,Astan,48.7778,-3.9375,9.250,2,35.160,2,6.31,2,8.070,2,0.080,2,10.00,2,0.14,2,0.34,2,4.50,2,65.732,8,3.268,8,2.100,2,7.506,2,-22.309,2,0.39,2,SRF,RA
3,2010-02-19,07:47:00,75.00,PM,F,60.00,Astan,48.7778,-3.9375,8.750,2,35.083,2,6.39,2,8.080,2,0.130,2,10.80,2,0.18,2,0.35,2,4.90,2,54.863,8,9.357,8,2.600,2,999999,9,999999,9,0.20,2,SRF,RA
3,2010-02-19,07:47:00,75.00,PM,S,1.00,Astan,48.7778,-3.9375,8.750,2,35.104,2,6.32,2,8.080,2,0.460,3,10.50,2,0.18,2,0.33,2,4.90,2,78.779,8,15.164,8,1.800,2,6.179,3,-24.415,2,0.32,2,SRF,RA
3,2010-03-09,12:01:00,29.00,PM,F,60.00,Astan,48.7778,-3.9375,8.500,2,34.973,2,6.54,2,8.060,2,0.080,2,10.70,2,0.18,2,0.30,2,4.90,2,102.975,8,16.001,8,2.600,2,999999,9,999999,9,0.90,2,SRF,RA
3,2010-03-09,12:01:00,29.00,PM,S,1.00,Astan,48.7778,-3.9375,8.300,2,34.927,2,6.60,2,8.060,2,0.190,2,11.30,2,0.18,2,0.29,2,5.00,2,132.395,8,9.143,8,2.200,2,7.524,2,-22.904,2,0.83,2,SRF,RA
3,2010-03-24,11:00:00,40.00,PM,F,60.00,Astan,48.7778,-3.9375,9.000,2,34.986,2,6.52,2,8.010,2,0.320,2,8.80,3,0.17,2,0.24,2,4.00,2,43.769,8,4.187,8,1.400,2,999999,9,999999,9,0.27,2,SRF,RA
3,2010-03-24,11:00:00,40.00,PM,S,1.00,Astan,48.7778,-3.9375,9.000,2,34.976,2,6.56,2,8.020,2,0.340,2,9.90,2,0.19,2,0.30,2,4.30,2,53.269,8,13.272,8,1.200,2,5.490,2,-22.490,2,0.36,2,SRF,RA
3,2010-04-07,11:19:00,30.00,PM,F,60.00,Astan,48.7778,-3.9375,9.550,2,34.923,2,6.41,2,8.030,2,0.290,2,7.80,2,0.16,2,0.21,2,2.90,2,33.929,8,18.979,8,1.600,2,999999,9,999999,9,0.52,2,SRF,RA
3,2010-04-07,11:19:00,30.00,PM,S,1.00,Astan,48.7778,-3.9375,9.580,2,34.919,2,6.45,2,8.040,2,0.300,2,7.10,2,0.14,2,0.20,2,2.70,2,37.905,8,10.150,8,1.200,2,6.303,2,-22.108,2,0.61,2,SRF,RA
3,2010-04-22,10:59:00,47.00,PM,F,60.00,Astan,48.7778,-3.9375,9.950,2,34.912,2,6.47,2,8.040,2,0.390,2,6.90,2,0.15,2,0.16,2,2.50,2,32.629,8,2.689,8,2.100,2,999999,9,999999,9,0.39,2,SRF,RA
3,2010-04-22,10:59:00,47.00,PM,S,1.00,Astan,48.7778,-3.9375,9.950,2,34.901,2,6.48,2,8.030,2,0.380,2,7.90,2,0.18,2,0.21,2,2.90,2,45.327,8,4.386,8,0.300,2,5.431,2,-22.536,2,0.41,2,SRF,RA
3,2010-05-06,10:29:00,36.00,PM,F,60.00,Astan,48.7778,-3.9375,10.700,2,34.985,2,6.45,2,8.070,2,0.360,2,6.70,2,0.18,2,0.19,2,2.50,2,69.945,8,15.249,8,0.500,2,999999,9,999999,9,0.92,2,SRF,RA
3,2010-05-06,10:29:00,36.00,PM,S,1.00,Astan,48.7778,-3.9375,10.750,2,34.964,2,999999,1,8.060,2,0.280,2,6.00,2,0.17,2,0.16,2,2.30,2,74.450,8,7.277,8,0.800,2,5.425,2,-23.232,2,1.06,2,SRF,RA
3,2010-05-21,10:47:00,58.00,PM,F,60.00,Astan,48.7778,-3.9375,11.550,2,35.019,2,6.29,2,8.090,2,2.050,2,3.13,2,0.23,2,0.19,2,2.35,2,160.316,8,13.054,8,0.700,2,999999,9,999999,9,0.19,2,SRF,RA
3,2010-05-21,10:47:00,58.00,PM,S,1.00,Astan,48.7778,-3.9375,11.550,2,35.015,2,6.32,2,8.080,2,2.160,2,3.20,2,0.24,2,0.16,2,2.57,2,53.861,8,29.043,8,0.900,2,5.802,2,-22.986,2,0.19,2,SRF,RA
3,2010-06-07,13:48:00,44.00,PM,F,60.00,Astan,48.7778,-3.9375,12.950,2,35.090,2,6.04,2,8.120,2,1.230,2,2.74,2,0.25,2,0.24,2,2.30,2,108.793,8,18.103,8,0.500,2,999999,9,999999,9,0.77,2,SRF,RA
3,2010-06-07,13:48:00,44.00,PM,S,1.00,Astan,48.7778,-3.9375,12.900,2,35.080,2,6.28,2,8.110,2,0.660,2,2.74,2,0.22,2,0.25,2,2.21,2,130.426,8,15.270,8,1.100,2,8.515,2,-22.265,2,1.97,2,SRF,RA
3,2010-06-21,12:36:00,58.00,PM,F,60.00,Astan,48.7778,-3.9375,13.350,2,35.183,2,6.00,2,8.050,2,0.830,2,2.41,2,0.22,2,0.27,2,1.88,2,131.846,8,26.745,8,0.600,2,999999,9,999999,9,1.27,2,SRF,RA
3,2010-06-21,12:36:00,58.00,PM,S,1.00,Astan,48.7778,-3.9375,13.550,2,35.171,2,6.04,2,8.030,2,0.770,2,2.25,2,0.24,2,0.27,2,1.79,2,79.393,8,17.716,8,1.500,2,5.651,2,-22.873,2,1.66,2,SRF,RA
3,2010-07-06,11:39:00,40.00,PM,F,60.00,Astan,48.7778,-3.9375,14.000,2,35.259,2,5.96,2,8.070,2,0.870,2,2.10,2,0.25,2,0.19,2,2.21,2,69.976,8,5.672,8,999999,1,999999,9,999999,9,0.78,2,SRF,RA
3,2010-07-06,11:39:00,40.00,PM,S,1.00,Astan,48.7778,-3.9375,14.450,2,35.233,2,6.03,2,8.060,2,0.730,2,2.29,2,0.26,2,0.18,2,2.11,2,62.826,8,15.488,8,999999,1,3.872,2,-23.231,2,1.35,2,SRF,RA
3,2010-07-20,11:56:00,49.00,PM,F,60.00,Astan,48.7778,-3.9375,14.600,2,35.297,2,6.02,2,8.090,2,0.550,2,1.01,2,0.18,2,0.21,2,1.33,2,134.113,8,20.888,8,2.400,2,999999,9,999999,9,1.81,2,SRF,RA
3,2010-07-20,11:56:00,49.00,PM,S,1.00,Astan,48.7778,-3.9375,14.850,2,35.279,2,6.09,2,8.080,2,0.370,2,0.85,2,0.16,2,0.20,2,1.19,2,108.331,8,32.121,8,2.900,2,6.265,2,-22.976,2,2.43,2,SRF,RA
3,2010-08-05,12:02:00,38.00,PM,F,60.00,Astan,48.7778,-3.9375,15.400,2,35.357,2,5.68,3,8.060,2,0.680,2,1.80,2,0.24,2,0.16,2,2.40,2,48.941,8,24.764,8,2.400,2,999999,9,999999,9,1.62,2,SRF,RA
3,2010-08-05,12:02:00,38.00,PM,S,1.00,Astan,48.7778,-3.9375,15.950,2,35.352,2,6.08,2,8.060,2,0.410,2,1.00,2,0.15,2,0.10,2,2.30,2,176.422,8,38.623,8,4.000,2,5.361,2,-23.586,2,3.46,2,SRF,RA
3,2010-08-19,12:53:00,38.00,PM,F,60.00,Astan,48.7778,-3.9375,15.600,2,35.377,2,5.42,4,8.030,2,0.610,2,2.80,2,0.55,2,0.22,2,2.60,2,101.390,8,10.241,8,5.700,2,999999,9,999999,9,1.08,2,SRF,RA
3,2010-08-19,12:53:00,38.00,PM,S,1.00,Astan,48.7778,-3.9375,15.870,2,35.377,2,5.38,4,8.010,2,0.590,2,2.60,2,0.49,2,0.20,2,2.60,2,110.556,8,10.705,8,1.800,2,8.320,2,-22.522,2,1.39,2,SRF,RA
3,2010-09-03,11:26:00,35.00,PM,F,60.00,Astan,48.7778,-3.9375,15.800,2,35.362,2,5.44,3,8.020,2,0.460,2,2.40,2,0.44,2,0.17,2,2.10,2,99.431,8,16.294,8,1.300,2,999999,9,999999,9,1.74,2,SRF,RA
3,2010-09-03,11:26:00,35.00,PM,S,1.00,Astan,48.7778,-3.9375,16.000,2,35.363,2,5.47,3,8.030,2,0.460,2,2.90,2,0.52,2,0.24,2,2.60,2,87.803,8,7.980,8,999999,1,6.673,3,-23.095,2,1.81,2,SRF,RA
3,2010-09-16,10:45:00,35.00,PM,F,60.00,Astan,48.7778,-3.9375,14.900,2,35.388,2,5.44,2,8.030,2,0.240,2,4.30,2,0.62,2,0.33,2,2.60,2,69.331,8,20.652,8,1.600,2,999999,9,999999,9,0.64,2,SRF,RA
3,2010-09-16,10:45:00,35.00,PM,S,1.00,Astan,48.7778,-3.9375,15.200,2,35.414,2,5.42,2,8.020,2,0.440,2,4.20,2,0.61,2,0.33,2,2.70,2,152.203,8,22.159,8,1.700,2,6.906,2,-21.927,2,0.88,2,SRF,RA
3,2010-10-01,09:33:00,41.00,PM,F,60.00,Astan,48.7778,-3.9375,14.550,2,35.398,2,5.44,2,8.000,2,0.370,2,4.90,2,0.53,2,0.34,2,2.70,2,67.236,8,33.302,8,1.000,2,999999,9,999999,9,0.81,2,SRF,RA
3,2010-10-01,09:33:00,41.00,PM,S,1.00,Astan,48.7778,-3.9375,14.680,2,35.387,2,5.42,2,7.970,2,0.420,2,4.40,2,0.49,2,0.31,2,2.50,2,129.517,8,32.264,8,0.600,2,8.538,2,-22.876,2,1.04,2,SRF,RA
3,2010-10-15,10:10:00,35.00,PM,F,60.00,Astan,48.7778,-3.9375,14.350,2,35.375,2,5.46,2,8.000,2,0.240,2,5.60,2,0.69,2,0.37,2,3.00,2,113.671,8,11.854,8,2.400,2,999999,9,999999,9,0.48,2,SRF,RA
3,2010-10-15,10:10:00,35.00,PM,S,1.00,Astan,48.7778,-3.9375,14.400,2,35.385,2,5.47,2,8.040,2,0.400,2,6.00,2,0.74,2,0.41,2,3.20,2,96.058,8,10.162,8,2.900,2,7.310,2,-21.810,2,0.51,2,SRF,RA
3,2010-10-29,08:25:00,56.00,PM,F,60.00,Astan,48.7778,-3.9375,13.820,2,35.382,2,5.56,2,8.020,2,0.170,2,6.60,2,0.81,2,0.41,2,3.20,2,170.360,8,26.512,8,2.000,2,999999,9,999999,9,0.45,2,SRF,RA
3,2010-10-29,08:25:00,56.00,PM,S,1.00,Astan,48.7778,-3.9375,13.850,2,35.375,2,5.56,2,8.050,2,0.130,2,6.50,2,0.79,2,0.40,2,3.10,2,118.772,8,23.395,8,1.000,2,9.010,3,-22.400,2,0.52,2,SRF,RA
3,2010-11-15,11:58:00,36.00,PM,F,60.00,Astan,48.7778,-3.9375,13.310,2,35.349,2,5.64,2,8.030,2,0.080,2,6.40,2,0.52,2,0.40,2,3.10,2,999999,5,999999,5,2.900,2,999999,9,999999,9,0.39,2,SRF,RA
3,2010-11-15,11:58:00,36.00,PM,S,1.00,Astan,48.7778,-3.9375,13.300,2,35.331,2,5.65,2,8.030,2,0.270,2,6.90,2,0.55,2,0.41,2,3.90,2,999999,8,999999,5,1.900,2,6.970,2,-21.370,2,0.38,2,SRF,RA
3,2010-11-29,10:28:00,56.00,PM,F,60.00,Astan,48.7778,-3.9375,12.150,2,35.249,2,5.80,2,8.020,2,0.050,2,8.30,2,0.39,2,0.47,2,3.90,2,999999,5,999999,5,2.000,2,999999,9,999999,9,0.49,2,SRF,RA
3,2010-11-29,10:28:00,56.00,PM,S,1.00,Astan,48.7778,-3.9375,12.150,2,35.272,2,5.77,2,8.030,2,0.190,2,8.20,2,0.37,2,0.46,2,3.90,2,999999,5,999999,5,2.100,2,5.940,3,-21.610,2,0.48,2,SRF,RA
3,2010-12-15,11:45:00,37.00,PM,F,60.00,Astan,48.7778,-3.9375,10.700,2,35.188,2,6.01,2,8.030,2,0.060,2,9.70,2,0.15,2,0.44,2,4.30,2,999999,5,999999,5,1.200,2,999999,9,999999,9,0.38,2,SRF,RA
3,2010-12-15,11:45:00,37.00,PM,S,1.00,Astan,48.7778,-3.9375,10.700,2,35.196,2,5.99,2,8.030,2,0.100,2,9.60,2,0.17,2,0.42,2,12.80,2,999999,5,999999,5,1.500,2,7.110,2,-21.840,2,0.35,2,SRF,RA
3,2011-01-13,11:08:00,38.00,PM,F,60.00,Astan,48.7778,-3.9375,9.900,2,35.278,2,6.20,2,8.000,4,0.100,2,7.29,2,0.14,2,0.40,2,3.63,2,69.600,2,7.790,2,1.200,2,999999,9,999999,9,0.33,2,SRF,RA
3,2011-01-13,11:08:00,38.00,PM,S,1.00,Astan,48.7778,-3.9375,9.900,2,35.272,2,6.22,2,7.990,4,0.130,2,7.33,2,0.15,2,0.39,2,3.64,2,71.480,2,8.320,2,0.700,2,7.990,2,-22.890,2,0.33,2,SRF,RA
3,2011-01-28,12:15:00,46.00,PM,S,1.00,Astan,48.7778,-3.9375,9.300,2,35.231,2,6.41,2,7.970,4,0.120,2,9.95,2,0.19,2,0.48,2,4.54,2,114.090,2,13.220,2,1.600,2,6.770,2,-22.510,2,0.61,3,SRF,RA
3,2011-01-28,12:20:00,46.00,PM,F,60.00,Astan,48.7778,-3.9375,9.400,2,35.227,2,6.39,2,7.970,4,0.090,2,9.72,2,0.19,2,0.40,2,4.37,2,117.150,2,12.960,2,2.100,2,999999,9,999999,9,0.58,3,SRF,RA
3,2011-02-11,09:46:00,43.00,PM,F,60.00,Astan,48.7778,-3.9375,9.480,2,35.279,2,6.39,2,7.950,4,0.080,2,9.81,2,0.18,2,0.47,2,4.32,2,197.740,3,25.120,3,4.300,2,999999,9,999999,9,0.67,3,SRF,RA
3,2011-02-11,09:46:00,43.00,PM,S,1.00,Astan,48.7778,-3.9375,9.480,2,35.258,2,6.38,2,7.930,4,0.100,2,9.82,2,0.19,2,0.44,2,4.29,2,155.880,3,15.500,2,2.900,2,6.820,2,-22.410,2,0.58,3,SRF,RA
3,2011-02-25,09:58:00,53.00,PM,F,60.00,Astan,48.7778,-3.9375,9.880,2,35.127,2,6.25,2,7.990,4,0.090,2,9.63,2,0.19,2,0.37,2,4.94,2,69.260,2,7.210,2,2.300,2,999999,9,999999,9,0.45,2,SRF,RA
3,2011-02-25,09:58:00,53.00,PM,S,1.00,Astan,48.7778,-3.9375,9.920,2,35.162,2,6.29,2,7.960,4,0.130,2,10.01,2,0.18,2,0.38,2,4.84,2,49.510,2,10.400,2,1.900,2,7.410,2,-22.870,2,0.44,2,SRF,RA
3,2011-03-14,11:39:00,34.00,PM,S,1.00,Astan,48.7778,-3.9375,9.540,2,35.051,2,6.40,2,7.880,4,0.210,2,9.98,2,0.20,2,0.38,2,4.54,2,98.500,2,10.030,2,1.800,2,5.720,2,-23.240,2,0.55,2,SRF,RA
3,2011-03-14,12:07:00,34.00,PM,F,60.00,Astan,48.7778,-3.9375,9.540,2,35.056,2,6.41,2,7.890,4,0.170,2,11.12,3,0.24,2,0.40,2,5.24,2,86.630,2,7.210,2,2.800,2,999999,9,999999,9,0.57,2,SRF,RA
3,2011-03-28,12:42:00,37.00,PM,F,60.00,Astan,48.7778,-3.9375,10.080,2,35.050,2,6.39,2,8.000,4,0.150,2,9.66,2,0.20,2,0.33,2,4.49,2,77.220,2,7.810,2,1.900,2,999999,9,999999,9,0.46,2,SRF,RA
3,2011-03-28,12:42:00,37.00,PM,S,1.00,Astan,48.7778,-3.9375,10.150,2,35.050,2,6.41,2,7.980,4,0.190,2,9.85,2,0.20,2,0.34,2,4.69,2,68.630,2,6.700,2,1.200,2,5.500,2,-24.020,2,0.60,2,SRF,RA
3,2011-04-12,11:35:00,40.00,PM,F,60.00,Astan,48.7778,-3.9375,10.850,2,35.067,2,6.37,2,8.010,4,0.130,2,8.83,2,0.21,2,0.29,2,4.24,2,78.430,2,7.550,2,999999,9,999999,9,999999,9,0.52,2,SRF,RA
3,2011-04-12,11:35:00,40.00,PM,S,1.00,Astan,48.7778,-3.9375,10.980,2,35.062,2,6.42,2,7.930,4,0.170,2,9.02,2,0.20,2,0.29,2,4.24,2,86.700,2,7.830,2,999999,9,5.460,2,-23.130,2,0.59,2,SRF,RA
3,2011-04-26,12:17:00,38.00,PM,F,60.00,Astan,48.7778,-3.9375,11.680,2,35.072,2,999999,4,7.990,4,0.200,2,6.32,2,0.16,2,0.18,2,2.93,2,86.630,2,11.460,2,2.400,2,999999,9,999999,9,0.74,2,SRF,RA
3,2011-04-26,12:17:00,38.00,PM,S,1.00,Astan,48.7778,-3.9375,11.810,2,35.083,2,7.28,4,7.990,4,0.170,2,6.77,2,0.20,2,0.25,2,3.23,2,73.680,2,9.890,2,2.000,2,6.720,2,-19.970,2,1.06,2,SRF,RA
3,2011-05-11,11:23:00,51.00,PM,F,60.00,Astan,48.7778,-3.9375,12.470,2,35.152,2,6.42,2,8.090,4,0.480,2,4.13,2,0.21,2,0.25,3,2.18,2,144.200,2,14.110,2,0.200,2,999999,9,999999,9,0.88,2,SRF,RA
3,2011-05-11,11:23:00,51.00,PM,S,1.00,Astan,48.7778,-3.9375,12.580,2,35.143,2,6.44,2,8.090,4,0.520,2,2.73,2,0.12,2,0.07,3,1.38,2,129.010,2,13.150,2,1.200,2,8.650,2,-22.010,2,0.99,2,SRF,RA
3,2011-05-25,12:10:00,45.00,PM,F,60.00,Astan,48.7778,-3.9375,13.480,2,35.227,2,6.13,2,8.060,4,0.850,2,2.26,2,0.11,2,0.08,2,1.43,2,243.480,3,43.160,3,0.900,2,999999,9,999999,9,0.81,2,SRF,RA
3,2011-05-25,12:10:00,45.00,PM,S,1.00,Astan,48.7778,-3.9375,13.700,2,35.207,2,6.17,2,8.060,4,0.910,2,2.13,2,0.15,2,0.14,2,1.73,2,143.930,2,16.910,2,0.700,2,5.550,2,-22.590,2,0.99,2,SRF,RA
3,2011-06-09,10:55:00,61.00,PM,F,60.00,Astan,48.7778,-3.9375,13.750,2,35.293,2,6.00,2,8.010,4,0.480,2,2.10,2,0.22,2,0.16,2,2.30,2,128.070,2,14.200,2,0.600,2,999999,9,999999,9,0.97,2,SRF,RA
3,2011-06-09,10:55:00,61.00,PM,S,1.00,Astan,48.7778,-3.9375,13.820,2,35.253,2,6.02,2,8.010,4,0.570,2,2.20,2,0.23,2,0.16,2,2.50,2,115.910,2,16.750,2,1.000,2,5.280,2,-23.790,2,1.03,2,SRF,RA
3,2011-06-24,11:45:00,42.00,PM,F,60.00,Astan,48.7778,-3.9375,14.150,2,35.276,2,5.93,2,8.050,4,0.350,2,2.40,2,0.32,2,0.15,2,2.30,2,125.340,2,14.020,2,1.400,2,999999,9,999999,9,0.88,2,SRF,RA
3,2011-06-24,11:45:00,42.00,PM,S,1.00,Astan,48.7778,-3.9375,14.300,2,35.273,2,5.96,2,8.040,4,0.450,2,2.20,2,0.26,2,0.12,2,2.20,2,127.870,2,14.710,2,1.100,2,6.570,2,-22.070,2,0.92,2,SRF,RA
3,2011-07-11,13:25:00,58.00,PM,F,60.00,Astan,48.7778,-3.9375,14.820,2,35.384,2,5.93,2,8.070,4,0.560,2,1.30,2,0.22,2,0.12,2,1.50,2,160.490,3,21.270,3,4.100,2,999999,9,999999,9,1.39,2,SRF,RA
3,2011-07-11,13:25:00,58.00,PM,S,1.00,Astan,48.7778,-3.9375,14.880,2,35.323,2,5.99,2,8.070,4,0.820,2,1.40,2,0.22,2,0.12,2,1.50,2,140.230,2,15.120,2,2.200,2,5.650,2,-22.920,2,1.66,2,SRF,RA
3,2011-07-25,12:25:00,34.00,PM,F,60.00,Astan,48.7778,-3.9375,15.050,2,35.401,2,3.47,4,8.090,4,0.660,2,1.90,2,0.25,2,0.19,2,2.10,2,163.570,3,25.000,3,2.400,2,999999,9,999999,9,1.10,2,SRF,RA
3,2011-07-25,12:25:00,34.00,PM,S,1.00,Astan,48.7778,-3.9375,15.090,2,35.372,2,5.72,2,8.050,4,0.710,2,1.60,2,0.22,2,0.15,2,1.80,2,125.110,2,14.630,2,2.300,2,7.250,2,-22.980,2,1.39,2,SRF,RA
3,2011-08-08,12:23:00,48.00,PM,F,60.00,Astan,48.7778,-3.9375,15.230,2,35.396,2,5.70,2,8.060,4,0.910,2,1.78,2,0.25,2,0.11,2,2.26,2,79.320,2,8.960,2,4.900,2,999999,9,999999,9,0.45,3,SRF,RA
3,2011-08-08,12:23:00,48.00,PM,S,1.00,Astan,48.7778,-3.9375,15.490,2,35.389,2,5.72,2,8.050,4,0.960,2,1.70,2,0.10,2,0.06,2,2.15,2,88.540,2,11.740,2,6.700,2,7.140,2,-22.720,2,0.52,3,SRF,RA
3,2011-08-23,11:23:00,31.00,PM,F,60.00,Astan,48.7778,-3.9375,15.370,2,35.444,2,5.36,4,8.060,4,0.350,2,2.59,2,0.32,2,0.18,2,2.34,2,107.920,2,13.900,2,1.100,2,999999,9,999999,9,0.63,2,SRF,RA
3,2011-08-23,11:23:00,31.00,PM,S,1.00,Astan,48.7778,-3.9375,15.510,2,35.412,2,5.71,2,8.060,4,0.530,2,1.94,2,0.09,2,0.07,2,2.42,2,166.240,3,20.930,2,3.400,2,5.400,2,-21.290,2,1.48,2,SRF,RA
3,2011-09-05,10:25:00,51.00,PM,F,60.00,Astan,48.7778,-3.9375,15.150,2,35.473,2,5.61,2,8.020,4,0.510,2,3.24,2,0.36,2,0.25,2,2.36,2,170.480,2,22.670,2,1.300,2,999999,9,999999,9,1.17,2,SRF,RA
3,2011-09-05,10:25:00,51.00,PM,S,1.00,Astan,48.7778,-3.9375,15.200,2,35.470,2,5.61,2,8.050,4,0.680,2,3.24,2,0.28,2,0.23,2,2.32,2,127.960,2,17.460,2,0.600,2,8.090,3,-22.160,3,1.21,2,SRF,RA
3,2011-09-21,10:59:00,32.00,PM,F,60.00,Astan,48.7778,-3.9375,14.750,2,35.492,2,5.50,2,8.020,4,0.690,2,4.54,2,0.41,2,0.34,2,3.06,2,72.060,2,9.450,2,2.400,2,999999,9,999999,9,0.43,2,SRF,RA
3,2011-09-21,10:59:00,32.00,PM,S,1.00,Astan,48.7778,-3.9375,14.720,2,35.492,2,5.52,2,8.000,4,0.710,2,4.54,2,0.26,2,0.20,2,2.99,2,98.190,2,11.240,2,1.200,2,8.640,2,-22.480,2,0.59,2,SRF,RA
3,2011-10-04,10:25:00,48.00,PM,F,60.00,Astan,48.7778,-3.9375,15.090,2,35.481,2,5.39,2,7.990,4,0.370,2,4.82,2,0.56,2,0.34,2,2.96,2,117.880,2,20.940,2,0.900,2,999999,9,999999,9,0.54,2,SRF,RA
3,2011-10-04,10:25:00,48.00,PM,S,1.00,Astan,48.7778,-3.9375,15.070,2,35.474,2,5.40,2,7.980,4,0.440,2,4.86,2,0.37,2,0.25,2,2.97,2,106.350,2,16.350,2,1.800,2,8.920,2,-22.690,3,0.63,2,SRF,RA
3,2011-10-20,10:23:00,38.00,PM,F,60.00,Astan,48.7778,-3.9375,14.700,2,35.481,2,5.41,2,8.020,4,0.200,2,5.95,2,0.84,2,0.41,2,3.11,2,134.900,2,27.570,2,4.400,2,999999,9,999999,9,0.56,2,SRF,RA
3,2011-10-20,10:23:00,38.00,PM,S,1.00,Astan,48.7778,-3.9375,14.620,2,35.477,2,5.45,2,8.020,4,0.280,2,6.18,2,0.70,2,0.37,2,3.20,2,116.610,2,27.290,2,3.600,2,7.600,2,-22.140,2,0.58,2,SRF,RA
3,2011-11-02,11:20:00,51.00,PM,F,60.00,Astan,48.7778,-3.9375,14.330,2,35.436,2,5.49,2,8.050,4,0.070,2,6.01,2,0.72,2,0.44,2,3.37,2,191.840,3,31.280,3,5.700,2,999999,9,999999,9,0.48,2,SRF,RA
3,2011-11-02,11:20:00,51.00,PM,S,1.00,Astan,48.7778,-3.9375,14.310,2,35.432,2,5.50,2,8.050,4,0.080,2,6.49,2,0.76,2,0.49,2,3.54,2,156.240,2,30.060,2,2.800,2,6.640,2,-21.970,3,0.65,2,SRF,RA
3,2011-11-18,09:06:00,49.00,PM,F,60.00,Astan,48.7778,-3.9375,13.800,2,35.424,2,5.58,2,7.910,4,0.140,2,7.24,2,0.73,2,0.46,2,3.71,2,105.800,2,8.130,2,0.800,2,999999,9,999999,9,0.56,2,SRF,RA
3,2011-11-18,09:06:00,49.00,PM,S,1.00,Astan,48.7778,-3.9375,13.800,2,35.416,2,5.58,2,7.910,4,0.290,3,6.78,2,0.67,2,0.44,2,3.48,2,103.080,2,14.390,2,1.000,2,6.880,2,-22.060,2,0.50,2,SRF,RA
3,2011-12-05,15:30:00,44.00,PM,F,60.00,Astan,48.7778,-3.9375,13.290,2,35.442,2,5.78,2,8.030,4,0.210,2,5.90,2,0.32,2,0.37,2,2.95,2,107.040,2,11.040,2,1.100,2,999999,9,999999,9,0.26,2,SRF,RA
3,2011-12-05,15:30:00,44.00,PM,S,1.00,Astan,48.7778,-3.9375,13.280,2,35.438,2,5.78,2,8.020,4,0.170,2,5.78,2,0.31,2,0.40,2,2.93,2,79.920,2,6.950,2,2.700,2,8.670,2,-24.310,3,0.32,2,SRF,RA
3,2011-12-19,13:32:00,56.00,PM,F,60.00,Astan,48.7778,-3.9375,12.720,2,35.532,2,5.90,2,8.060,4,0.110,2,5.75,2,0.16,2,0.38,2,3.14,2,165.150,2,20.940,2,1.000,2,999999,9,999999,9,0.30,2,SRF,RA
3,2011-12-19,13:32:00,56.00,PM,S,1.00,Astan,48.7778,-3.9375,12.500,2,35.533,2,5.88,2,8.050,4,0.110,2,5.58,2,0.13,2,0.35,2,3.09,2,174.630,2,13.200,2,3.600,2,8.170,2,-22.830,2,0.31,2,SRF,RA
3,2012-01-04,13:40:00,39.00,PM,F,60.00,Astan,48.7778,-3.9375,12.100,2,35.467,2,6.07,2,8.080,2,0.110,2,6.30,2,0.18,2,0.37,3,2.90,2,97.450,2,11.830,2,1.500,2,999999,9,999999,9,0.28,2,SRF,RA
3,2012-01-04,13:40:00,39.00,PM,S,1.00,Astan,48.7778,-3.9375,12.080,2,35.463,2,6.12,2,8.060,2,0.120,2,5.60,2,0.16,2,0.33,3,2.60,2,108.940,2,11.020,2,1.300,2,7.460,2,-22.270,2,0.24,2,SRF,RA
3,2012-01-18,12:29:00,53.00,PM,F,60.00,Astan,48.7778,-3.9375,11.450,2,35.474,2,6.05,2,8.030,2,0.110,2,6.90,2,0.17,2,0.35,3,2.90,2,85.650,2,8.240,2,1.100,2,999999,9,999999,9,0.42,2,SRF,RA
3,2012-01-18,12:29:00,53.00,PM,S,1.00,Astan,48.7778,-3.9375,11.460,2,35.474,2,6.06,2,8.030,2,0.100,2,6.90,2,0.16,2,0.32,3,2.90,2,128.140,2,16.540,2,1.300,2,999999,1,999999,1,0.47,2,SRF,RA
3,2012-02-01,11:34:00,32.00,PM,F,60.00,Astan,48.7778,-3.9375,11.080,2,35.467,2,6.15,2,8.040,2,0.060,2,6.70,2,0.19,2,0.35,3,2.70,2,90.480,2,13.460,2,0.900,2,999999,9,999999,9,0.20,2,SRF,RA
3,2012-02-01,11:34:00,32.00,PM,S,1.00,Astan,48.7778,-3.9375,10.920,2,35.463,2,6.15,2,8.020,2,0.070,2,6.70,2,0.18,2,0.32,3,2.70,2,95.990,2,11.470,2,1.000,2,8.490,2,-23.050,2,0.28,2,SRF,RA
3,2012-02-16,12:35:00,46.00,PM,F,60.00,Astan,48.7778,-3.9375,10.150,2,35.463,2,6.35,2,8.060,2,0.030,2,5.80,2,0.17,2,0.33,3,2.30,2,73.510,2,8.840,2,0.300,2,999999,9,999999,9,0.52,2,SRF,RA
3,2012-02-16,12:35:00,46.00,PM,S,1.00,Astan,48.7778,-3.9375,10.120,2,35.478,2,6.36,2,8.070,2,0.050,2,5.90,2,0.16,2,0.35,3,2.40,2,64.250,2,8.050,2,0.100,2,7.920,2,-23.090,2,0.57,2,SRF,RA
3,2012-03-05,14:15:00,62.00,PM,F,60.00,Astan,48.7778,-3.9375,10.400,2,35.395,2,6.45,2,8.070,2,0.110,2,5.00,2,0.18,2,0.32,3,2.00,2,98.620,2,15.520,2,6.700,2,999999,9,999999,9,0.56,2,SRF,RA
3,2012-03-05,14:15:00,62.00,PM,S,1.00,Astan,48.7778,-3.9375,10.150,2,35.395,2,6.44,2,8.050,2,0.150,2,5.60,2,0.18,2,0.34,3,2.20,2,112.690,2,13.500,2,1.600,2,5.890,2,-23.560,2,0.58,2,SRF,RA
3,2012-03-16,12:27:00,44.00,PM,F,60.00,Astan,48.7778,-3.9375,10.500,2,35.375,2,6.38,2,8.040,2,0.130,2,2.90,2,0.13,2,0.26,3,1.20,2,44.730,2,3.030,2,0.300,2,999999,9,999999,9,0.74,2,SRF,RA
3,2012-03-16,12:27:00,44.00,PM,S,1.00,Astan,48.7778,-3.9375,10.450,2,35.376,2,999999,1,8.050,2,0.130,2,5.90,2,0.25,2,0.36,3,2.30,2,56.360,4,3.590,4,0.400,2,8.140,3,-23.700,3,0.76,2,SRF,RA
3,2012-04-02,12:32:00,46.00,PM,F,60.00,Astan,48.7778,-3.9375,11.000,2,35.366,2,6.63,2,8.090,2,0.160,2,4.00,2,0.21,2,0.28,3,1.40,2,107.390,2,14.680,2,999999,1,999999,9,999999,9,1.91,2,SRF,RA
3,2012-04-02,12:32:00,46.00,PM,S,1.00,Astan,48.7778,-3.9375,10.400,2,35.367,2,6.68,2,8.080,2,0.270,2,3.50,2,0.20,2,0.28,3,1.20,2,116.140,2,18.440,2,999999,1,7.280,2,-22.440,2,1.93,2,SRF,RA
3,2012-04-16,13:35:00,54.00,PM,F,60.00,Astan,48.7778,-3.9375,11.280,2,35.375,2,7.00,2,8.090,2,0.290,2,2.30,2,0.14,2,0.21,3,0.60,2,86.480,2,11.280,2,4.100,2,999999,9,999999,9,1.80,2,SRF,RA
3,2012-04-16,13:35:00,54.00,PM,S,1.00,Astan,48.7778,-3.9375,11.200,2,35.378,2,6.63,2,8.070,2,0.350,2,2.00,2,0.13,2,0.19,3,0.60,2,109.000,2,13.820,2,0.600,2,6.550,2,-21.950,2,1.73,2,SRF,RA
3,2012-04-30,12:05:00,42.00,PM,F,60.00,Astan,48.7778,-3.9375,11.300,2,35.316,2,6.21,2,8.100,2,0.260,2,2.20,2,0.17,2,0.25,3,0.90,2,113.010,2,15.310,2,0.100,2,999999,9,999999,9,1.48,2,SRF,RA
3,2012-04-30,12:05:00,42.00,PM,S,1.00,Astan,48.7778,-3.9375,11.300,2,35.304,2,6.23,2,8.090,2,0.480,2,1.60,2,0.13,2,0.22,3,0.70,2,143.250,2,22.770,2,0.300,2,8.930,2,-22.620,2,1.62,2,SRF,RA
3,2012-05-14,12:39:00,47.00,PM,F,60.00,Astan,48.7778,-3.9375,11.770,2,35.251,2,6.28,2,8.090,2,0.350,2,3.20,2,0.25,2,0.28,3,1.50,2,68.950,2,7.700,2,0.800,2,999999,9,999999,9,1.64,2,SRF,RA
3,2012-05-14,12:39:00,47.00,PM,S,1.00,Astan,48.7778,-3.9375,11.770,2,35.226,2,6.32,2,8.070,2,0.430,2,2.80,2,0.23,2,0.29,3,1.40,2,73.510,2,16.270,2,0.700,2,8.430,2,-22.910,2,1.73,2,SRF,RA
3,2012-05-29,11:35:00,51.00,PM,F,60.00,Astan,48.7778,-3.9375,12.650,2,35.275,2,6.21,2,8.100,2,1.260,2,1.20,2,0.16,2,0.21,3,1.00,2,74.800,2,4.250,2,0.000,3,999999,9,999999,9,0.68,2,SRF,RA
3,2012-05-29,11:35:00,51.00,PM,S,1.00,Astan,48.7778,-3.9375,12.550,2,35.242,2,6.22,2,8.080,2,1.400,2,1.10,2,0.17,2,0.22,3,1.00,2,55.880,2,5.500,2,0.000,2,7.350,2,-25.910,2,0.60,2,SRF,RA
3,2012-06-13,12:35:00,44.00,PM,F,60.00,Astan,48.7778,-3.9375,13.330,2,35.280,2,6.08,2,8.080,2,0.410,2,2.00,2,0.21,2,0.24,3,1.70,2,98.020,2,11.910,2,999999,1,999999,9,999999,9,1.33,2,SRF,RA
3,2012-06-13,12:35:00,44.00,PM,S,1.00,Astan,48.7778,-3.9375,13.520,2,35.285,2,6.13,2,8.050,2,0.370,2,1.70,2,0.19,2,0.21,3,1.60,2,113.660,2,11.310,2,999999,1,8.420,2,-23.310,2,1.10,2,SRF,RA
3,2012-06-28,11:35:00,57.00,PM,F,60.00,Astan,48.7778,-3.9375,13.900,2,35.269,2,6.03,2,8.070,2,0.420,2,2.10,2,0.18,2,0.24,3,1.90,2,114.050,2,9.590,2,999999,1,999999,9,999999,9,1.08,2,SRF,RA
3,2012-06-28,11:35:00,57.00,PM,S,1.00,Astan,48.7778,-3.9375,14.020,2,35.265,2,6.04,2,8.060,2,0.410,2,2.20,2,0.19,2,0.25,3,2.00,2,109.940,2,14.580,2,999999,1,7.480,2,-23.940,2,0.94,2,SRF,RA
3,2012-07-12,11:35:00,41.00,PM,F,60.00,Astan,48.7778,-3.9375,14.450,2,35.288,2,5.95,2,8.100,2,0.480,2,1.40,2,0.15,2,0.19,3,1.20,2,153.670,2,27.800,2,0.200,2,999999,9,999999,9,0.97,2,SRF,RA
3,2012-07-12,11:35:00,41.00,PM,S,1.00,Astan,48.7778,-3.9375,14.480,2,35.275,2,5.97,2,8.110,2,0.450,2,1.40,2,0.17,2,0.20,3,1.30,2,96.240,2,7.730,2,0.400,2,6.980,2,-24.950,2,1.21,2,SRF,RA
3,2012-07-27,11:37:00,57.00,PM,F,60.00,Astan,48.7778,-3.9375,15.320,2,35.367,2,5.90,2,8.050,2,0.380,2,1.70,2,0.22,2,0.23,3,1.10,2,94.010,2,13.520,2,1.900,2,999999,9,999999,9,1.12,2,SRF,RA
3,2012-07-27,11:37:00,57.00,PM,S,1.00,Astan,48.7778,-3.9375,15.220,2,35.367,2,5.93,2,8.040,2,0.330,2,0.40,2,0.08,2,0.15,3,1.40,2,119.100,2,16.540,2,2.200,2,7.400,2,-24.970,2,1.69,2,SRF,RA
3,2012-08-10,10:45:00,39.00,PM,F,60.00,Astan,48.7778,-3.9375,15.560,2,35.326,2,5.77,2,8.000,2,0.550,2,1.60,2,0.23,2,0.22,3,1.90,2,116.430,2,10.900,2,3.000,2,999999,9,999999,9,0.97,2,SRF,RA
3,2012-08-10,10:45:00,39.00,PM,S,1.00,Astan,48.7778,-3.9375,15.720,2,35.335,2,5.83,2,8.010,2,0.670,2,1.50,2,0.08,2,0.16,3,1.90,2,142.320,2,15.860,2,4.600,2,6.480,2,-24.090,2,1.01,2,SRF,RA
3,2012-08-27,14:25:00,53.00,PM,F,60.00,Astan,48.7778,-3.9375,15.820,2,35.339,2,5.61,2,8.000,2,0.610,2,1.80,2,0.37,2,0.25,3,2.00,2,100.550,2,16.090,2,2.800,2,999999,9,999999,9,0.67,2,SRF,RA
3,2012-08-27,14:25:00,53.00,PM,S,1.00,Astan,48.7778,-3.9375,15.950,2,35.334,2,5.63,2,8.020,2,0.680,2,1.60,2,0.21,2,0.24,3,1.90,2,93.630,2,10.500,2,2.300,2,7.700,2,-23.620,2,0.72,2,SRF,RA
3,2012-09-10,12:15:00,29.00,PM,F,60.00,Astan,48.7778,-3.9375,15.920,2,35.354,2,5.42,2,8.030,2,0.440,2,2.60,2,0.58,2,0.29,3,2.20,2,93.410,2,5.890,4,1.000,2,999999,9,999999,9,0.49,2,SRF,RA
3,2012-09-10,12:15:00,29.00,PM,S,1.00,Astan,48.7778,-3.9375,15.980,2,35.350,2,5.46,2,8.020,2,0.480,2,2.60,2,0.24,2,0.21,3,2.20,2,104.490,2,13.680,2,1.400,2,6.660,2,-25.520,2,0.67,2,SRF,RA
3,2012-09-25,13:10:00,48.00,PM,F,60.00,Astan,48.7778,-3.9375,15.750,2,35.337,2,5.38,2,8.030,2,0.580,2,3.00,2,0.63,2,0.51,3,2.70,2,146.870,2,14.000,2,0.700,2,999999,9,999999,9,0.63,2,SRF,RA
3,2012-09-25,13:10:00,48.00,PM,S,1.00,Astan,48.7778,-3.9375,15.750,2,35.336,2,5.40,2,8.030,2,0.670,2,3.20,2,0.56,2,0.35,3,2.70,2,135.500,2,15.900,2,0.600,2,5.140,2,-24.500,2,0.72,2,SRF,RA
3,2012-10-09,10:20:00,30.00,PM,F,60.00,Astan,48.7778,-3.9375,15.400,2,35.350,2,5.37,2,8.020,2,0.130,2,4.60,2,0.86,2,0.37,3,2.80,2,84.600,2,8.400,2,0.200,2,999999,9,999999,9,0.16,2,SRF,RA
3,2012-10-09,10:20:00,30.00,PM,S,1.00,Astan,48.7778,-3.9375,15.400,2,35.347,2,5.38,2,8.010,2,0.200,2,5.10,2,0.61,2,0.34,3,3.00,2,93.900,2,8.440,2,999999,1,7.650,2,-24.460,2,0.30,2,SRF,RA
3,2012-10-22,10:30:00,53.00,PM,F,60.00,Astan,48.7778,-3.9375,14.500,2,35.354,2,5.50,2,7.900,2,0.110,2,5.90,2,0.68,2,0.43,3,3.20,2,164.520,2,25.570,2,0.600,2,999999,9,999999,9,0.49,2,SRF,RA
3,2012-10-22,10:30:00,53.00,PM,S,1.00,Astan,48.7778,-3.9375,14.520,2,35.347,2,5.49,2,7.900,2,0.100,2,4.70,2,0.55,2,0.39,3,2.60,2,155.240,2,16.650,2,2.900,2,6.180,2,-23.430,2,0.49,2,SRF,RA
3,2012-11-07,11:10:00,37.00,PM,F,60.00,Astan,48.7778,-3.9375,13.250,2,35.386,2,5.64,2,8.040,2,0.100,2,6.10,2,0.53,2,0.44,3,3.00,2,127.300,2,11.190,2,0.700,2,999999,9,999999,9,0.45,2,SRF,RA
3,2012-11-07,11:10:00,37.00,PM,S,1.00,Astan,48.7778,-3.9375,13.350,2,35.364,2,5.64,2,8.020,2,0.080,2,999999,1,0.56,2,0.42,3,999999,1,90.890,2,7.600,2,0.600,2,6.530,2,-23.850,2,0.38,2,SRF,RA
3,2012-11-22,12:25:00,49.00,PM,F,60.00,Astan,48.7778,-3.9375,12.900,2,35.377,2,5.55,2,7.910,2,0.100,2,6.30,2,0.34,2,0.43,3,3.40,2,94.530,2,7.470,2,2.700,2,999999,9,999999,9,0.28,2,SRF,RA
3,2012-11-22,12:25:00,49.00,PM,S,1.00,Astan,48.7778,-3.9375,12.850,2,35.365,2,5.55,2,7.900,2,0.110,2,6.10,2,0.37,2,0.42,3,3.10,2,126.660,2,9.320,2,2.200,2,7.240,2,-23.030,2,0.29,2,SRF,RA
3,2012-12-06,09:40:00,49.00,PM,F,60.00,Astan,48.7778,-3.9375,11.950,2,35.348,2,5.95,2,8.020,3,0.110,2,7.94,2,0.30,2,0.44,3,3.42,2,184.090,2,25.220,2,1.500,2,999999,9,999999,9,0.36,2,SRF,RA
3,2012-12-06,09:40:00,49.00,PM,S,1.00,Astan,48.7778,-3.9375,11.800,2,35.362,2,5.94,2,8.010,3,0.100,2,7.72,2,0.29,2,0.43,3,3.43,2,163.170,2,16.160,2,1.200,2,5.280,2,-22.910,2,0.35,2,SRF,RA
3,2012-12-21,11:30:00,47.00,PM,F,60.00,Astan,48.7778,-3.9375,11.450,2,35.272,2,5.97,2,7.970,3,0.080,2,8.00,2,0.17,2,0.41,3,3.40,2,232.690,2,27.190,2,2.400,2,999999,9,999999,9,0.34,2,SRF,RA
3,2012-12-21,11:30:00,47.00,PM,S,1.00,Astan,48.7778,-3.9375,11.450,2,35.270,2,5.96,2,7.970,3,0.080,2,8.10,2,0.16,2,0.39,3,3.37,2,146.270,4,9.740,2,1.400,2,3.460,2,-22.970,2,0.31,2,SRF,RA
3,2013-01-07,13:05:00,54.00,PM,F,60.00,Astan,48.7778,-3.9375,11.450,2,35.278,2,6.03,2,7.930,3,0.070,2,8.70,2,0.19,2,0.39,2,3.60,2,106.610,2,11.650,2,2.000,2,999999,9,999999,9,0.37,2,SRF,RA
3,2013-01-07,13:05:00,54.00,PM,S,1.00,Astan,48.7778,-3.9375,11.460,2,35.294,2,6.03,2,7.920,3,0.070,2,8.40,2,0.19,2,0.39,2,3.60,2,109.330,2,10.910,2,1.300,2,7.390,2,-23.090,2,0.35,2,SRF,RA
3,2013-01-21,10:15:00,35.00,PM,F,60.00,Astan,48.7778,-3.9375,10.400,2,35.234,2,6.07,2,7.990,3,0.110,2,8.20,2,0.14,2,0.37,2,3.34,2,87.210,2,7.020,2,0.400,2,999999,9,999999,9,0.39,2,SRF,RA
3,2013-01-21,10:15:00,35.00,PM,S,1.00,Astan,48.7778,-3.9375,10.300,2,35.248,2,6.08,2,7.990,3,0.080,2,8.03,2,0.13,2,0.38,2,3.22,2,68.890,2,5.810,2,0.600,2,8.590,2,-23.500,2,0.39,2,SRF,RA
3,2013-02-04,11:20:00,53.00,PM,F,60.00,Astan,48.7778,-3.9375,10.420,2,35.219,2,6.21,2,7.920,3,0.060,2,9.07,2,0.16,2,0.43,2,3.56,2,81.900,2,6.940,2,0.500,2,999999,9,999999,9,0.45,2,SRF,RA
3,2013-02-04,11:20:00,53.00,PM,S,1.00,Astan,48.7778,-3.9375,10.470,2,35.178,2,6.08,2,7.920,3,0.060,2,9.19,2,0.16,2,0.39,2,3.91,2,75.860,2,5.950,2,0.700,2,8.200,2,-22.780,2,0.44,2,SRF,RA
3,2013-02-19,11:55:00,30.00,PM,F,60.00,Astan,48.7778,-3.9375,10.120,2,35.094,2,6.23,2,7.920,3,0.130,2,9.14,2,0.13,2,0.39,2,4.18,2,94.540,2,9.840,2,2.000,2,999999,9,999999,9,0.61,2,SRF,RA
3,2013-02-19,11:55:00,30.00,PM,S,1.00,Astan,48.7778,-3.9375,10.120,2,35.078,2,6.27,2,7.920,3,0.270,2,11.01,2,0.16,2,0.43,2,4.98,2,98.670,2,9.070,2,0.800,2,4.870,3,-25.690,2,0.61,2,SRF,RA
3,2013-03-06,12:08:00,47.00,PM,F,60.00,Astan,48.7778,-3.9375,9.400,2,35.126,2,6.40,2,7.960,3,0.110,2,11.03,2,0.18,2,0.37,2,4.81,2,74.880,2,9.910,2,0.600,2,999999,9,999999,9,0.56,2,SRF,RA
3,2013-03-06,12:08:00,47.00,PM,S,1.00,Astan,48.7778,-3.9375,9.400,2,35.128,2,6.41,2,7.950,3,0.170,2,10.97,2,0.18,2,0.37,2,4.80,2,73.940,2,6.040,2,0.100,2,5.930,2,-23.500,2,0.57,2,SRF,RA
3,2013-03-21,12:23:00,30.00,PM,F,60.00,Astan,48.7778,-3.9375,9.350,2,35.133,2,6.35,2,7.920,3,0.170,2,8.85,2,0.17,2,0.31,2,3.40,2,128.390,2,13.110,2,0.300,2,999999,9,999999,9,0.63,2,SRF,RA
3,2013-03-21,12:23:00,30.00,PM,S,1.00,Astan,48.7778,-3.9375,9.300,2,35.107,2,6.00,2,7.920,3,0.170,2,9.02,2,0.17,2,0.32,2,3.38,2,101.350,2,12.670,2,0.400,2,8.610,3,-24.520,3,0.84,2,SRF,RA
3,2013-04-03,10:30:00,55.00,PM,F,60.00,Astan,48.7778,-3.9375,9.100,2,35.029,2,6.43,2,7.950,3,0.300,2,8.93,2,0.16,2,0.23,2,2.38,2,74.700,2,9.040,2,0.700,2,999999,9,999999,9,0.60,2,SRF,RA
3,2013-04-03,10:30:00,55.00,PM,S,1.00,Astan,48.7778,-3.9375,9.150,2,35.034,2,6.00,2,7.950,3,0.370,2,8.91,2,0.17,2,0.20,2,2.33,2,56.560,2,6.200,2,2.000,2,8.720,2,-22.690,2,0.62,2,SRF,RA
3,2013-04-19,11:35:00,34.00,PM,F,60.00,Astan,48.7778,-3.9375,9.950,2,34.812,2,6.00,2,7.940,3,0.350,2,6.48,2,0.17,2,0.16,2,2.07,2,79.800,2,9.090,2,0.700,2,999999,9,999999,9,0.92,2,SRF,RA
3,2013-04-19,11:35:00,34.00,PM,S,1.00,Astan,48.7778,-3.9375,10.000,2,34.804,2,6.39,2,7.940,3,0.390,2,7.74,2,0.20,2,0.16,2,2.37,2,69.150,2,11.350,2,0.600,2,8.320,2,-25.660,2,0.70,2,SRF,RA
3,2013-05-03,12:10:00,54.00,PM,F,60.00,Astan,48.7778,-3.9375,10.480,2,34.817,2,6.41,2,7.930,3,0.250,2,5.89,2,0.17,2,0.13,2,2.06,2,71.600,2,13.930,2,0.100,2,999999,9,999999,9,0.91,2,SRF,RA
3,2013-05-03,12:10:00,54.00,PM,S,1.00,Astan,48.7778,-3.9375,10.570,2,34.816,2,6.42,2,7.930,3,0.300,2,6.73,2,0.21,2,0.13,2,2.33,2,76.440,2,10.280,2,0.600,2,6.570,2,-22.780,2,0.98,2,SRF,RA
3,2013-05-16,08:42:00,54.00,PM,F,60.00,Astan,48.7778,-3.9375,11.150,2,34.868,3,6.27,2,7.980,3,0.220,2,5.88,2,0.23,2,0.14,2,2.22,2,80.320,2,13.960,2,0.700,2,999999,9,999999,9,1.07,2,SRF,RA
3,2013-05-16,08:42:00,54.00,PM,S,1.00,Astan,48.7778,-3.9375,11.250,2,34.930,2,6.28,2,7.960,3,0.380,2,6.38,2,0.23,2,0.16,2,2.37,2,77.970,2,11.180,2,0.300,2,6.100,2,-22.940,2,1.12,2,SRF,RA
3,2013-06-03,10:50:00,55.00,PM,F,60.00,Astan,48.7778,-3.9375,11.950,2,34.961,2,999999,9,7.980,3,0.220,2,4.50,2,0.20,2,0.11,2,1.96,2,75.320,2,12.250,2,0.300,2,999999,9,999999,9,1.07,2,SRF,RA
3,2013-06-03,10:50:00,55.00,PM,S,1.00,Astan,48.7778,-3.9375,12.100,2,34.972,2,6.35,2,7.970,3,0.190,2,4.16,2,0.19,2,0.10,2,1.92,2,74.730,2,7.860,2,0.500,2,6.950,2,-24.120,2,1.28,2,SRF,RA
3,2013-06-17,11:00:00,45.00,PM,F,60.00,Astan,48.7778,-3.9375,12.650,2,35.018,2,6.23,2,8.010,3,0.400,2,3.74,2,0.20,2,0.10,2,2.01,2,74.190,2,12.630,2,0.300,2,999999,9,999999,9,1.86,2,SRF,RA
3,2013-06-17,11:00:00,49.00,PM,S,1.00,Astan,48.7778,-3.9375,12.720,2,35.017,2,6.26,2,8.010,3,0.340,2,3.78,2,0.21,2,0.09,2,2.01,2,107.200,2,15.360,2,0.200,2,6.450,2,-22.460,2,1.72,2,SRF,RA
3,2013-07-02,12:32:00,47.00,PM,F,60.00,Astan,48.7778,-3.9375,13.300,2,35.185,2,6.07,2,8.000,3,0.590,2,3.24,2,0.23,2,0.15,2,1.75,2,66.670,2,8.490,2,1.700,2,999999,9,999999,9,0.57,2,SRF,RA
3,2013-07-02,12:32:00,47.00,PM,S,1.00,Astan,48.7778,-3.9375,13.400,2,35.182,2,6.08,2,7.980,3,0.550,2,3.03,2,0.21,2,0.13,2,1.89,2,79.880,2,7.270,2,0.200,2,8.420,2,-22.960,2,0.78,2,SRF,RA
3,2013-07-17,11:25:00,51.00,PM,F,60.00,Astan,48.7778,-3.9375,14.120,2,35.235,2,6.10,2,7.990,3,0.520,2,2.56,2,0.28,2,0.13,2,1.74,2,90.850,2,20.200,2,0.500,2,999999,9,999999,9,1.04,2,SRF,RA
3,2013-07-17,11:25:00,51.00,PM,S,1.00,Astan,48.7778,-3.9375,14.380,2,35.225,2,6.15,2,7.980,3,0.450,2,2.47,2,0.27,2,0.11,2,1.65,2,87.730,2,9.660,2,0.100,2,7.310,2,-23.150,2,1.37,2,SRF,RA
3,2013-07-31,11:51:00,39.00,PM,F,60.00,Astan,48.7778,-3.9375,14.650,2,35.375,2,6.11,2,8.010,3,0.480,2,1.23,2,0.22,2,0.12,2,1.51,2,107.910,2,17.040,2,0.200,2,999999,9,999999,9,2.21,2,SRF,RA
3,2013-07-31,11:51:00,39.00,PM,S,1.00,Astan,48.7778,-3.9375,15.000,2,35.340,2,6.18,2,8.010,3,0.470,2,0.94,2,0.19,2,0.08,2,1.34,2,143.720,2,23.850,2,0.600,2,6.690,2,-23.650,2,3.26,2,SRF,RA
3,2013-08-14,11:16:00,59.00,PM,F,60.00,Astan,48.7778,-3.9375,15.560,9,35.415,2,999999,9,999999,9,999999,9,999999,9,999999,9,999999,9,999999,9,999999,9,999999,9,999999,9,999999,9,999999,9,999999,9,SRF,RA
3,2013-08-14,11:16:00,59.00,PM,S,1.00,Astan,48.7778,-3.9375,15.680,9,35.413,2,999999,9,999999,9,999999,9,999999,9,999999,9,999999,9,999999,9,999999,9,999999,9,999999,9,999999,9,999999,9,999999,9,SRF,RA
3,2013-08-29,10:46:00,35.00,PM,F,60.00,Astan,48.7778,-3.9375,15.870,2,35.433,2,5.50,2,7.970,3,0.540,2,2.56,2,0.47,2,0.19,2,2.21,2,76.050,2,8.330,2,0.100,2,999999,9,999999,9,0.78,2,SRF,RA
3,2013-08-29,10:46:00,35.00,PM,S,1.00,Astan,48.7778,-3.9375,16.050,2,35.440,2,5.53,2,7.950,3,0.580,2,2.83,2,0.48,2,0.22,2,2.52,2,90.670,2,8.460,2,0.100,2,8.630,4,-23.550,3,0.92,2,SRF,RA
3,2013-09-13,10:40:00,50.00,PM,F,60.00,Astan,48.7778,-3.9375,15.870,2,35.437,2,5.46,2,7.960,3,0.310,2,2.97,2,0.65,2,0.22,2,2.29,2,71.350,2,6.430,2,1.400,2,999999,9,999999,9,0.84,2,SRF,RA
3,2013-09-13,10:40:00,50.00,PM,S,1.00,Astan,48.7778,-3.9375,15.870,2,35.436,2,5.45,2,7.940,3,0.310,2,3.03,2,0.67,2,0.24,2,2.37,2,80.820,2,10.530,2,0.400,2,8.760,2,-24.370,2,0.93,2,SRF,RA
3,2013-09-26,09:23:00,47.00,PM,F,60.00,Astan,48.7778,-3.9375,15.750,2,35.444,2,5.44,2,7.960,3,0.150,2,4.09,2,0.85,2,0.26,2,2.80,2,114.340,2,16.610,2,0.900,2,999999,9,999999,9,0.83,2,SRF,RA
3,2013-09-26,09:23:00,47.00,PM,S,1.00,Astan,48.7778,-3.9375,15.750,2,35.442,2,5.44,2,7.990,3,0.200,2,4.03,2,0.86,2,0.26,2,2.78,2,88.550,2,11.710,2,0.600,2,7.300,2,-23.890,2,0.92,2,SRF,RA
3,2013-10-14,12:55:00,57.00,PM,F,60.00,Astan,48.7778,-3.9375,14.750,2,35.455,2,5.42,2,7.920,3,0.240,2,5.29,2,0.74,2,0.38,2,3.24,2,82.360,2,8.050,2,0.200,2,999999,9,999999,9,0.64,2,SRF,RA
3,2013-10-14,12:55:00,57.00,PM,S,1.00,Astan,48.7778,-3.9375,14.750,2,35.442,2,5.42,2,7.990,3,0.220,2,999999,9,999999,9,999999,9,999999,9,80.100,2,6.950,2,0.200,2,6.180,2,-23.670,2,0.59,2,SRF,RA
3,2013-10-30,14:15:00,52.00,PM,F,60.00,Astan,48.7778,-3.9375,14.350,2,35.434,2,5.59,2,7.920,3,0.520,2,6.51,2,0.55,2,0.42,2,3.08,2,111.920,2,13.030,2,1.000,2,999999,9,999999,9,0.53,2,SRF,RA
3,2013-10-30,14:15:00,52.00,PM,S,1.00,Astan,48.7778,-3.9375,14.350,2,35.437,2,5.62,2,7.920,3,0.480,2,6.76,2,0.56,2,0.46,2,3.26,2,135.320,2,14.400,2,1.200,2,6.580,2,-21.890,2,0.61,2,SRF,RA
3,2013-11-12,12:55:00,57.00,PM,F,60.00,Astan,48.7778,-3.9375,14.120,2,35.368,2,5.61,2,7.920,3,0.620,2,5.23,2,0.56,2,0.37,2,2.69,2,106.720,2,6.480,2,1.300,2,999999,9,999999,9,0.38,2,SRF,RA
3,2013-11-12,12:55:00,57.00,PM,S,1.00,Astan,48.7778,-3.9375,14.120,2,35.356,2,5.62,2,7.900,3,0.330,2,5.28,2,0.56,2,0.32,2,2.73,2,48.600,2,4.050,2,0.900,2,6.810,2,-22.610,6,0.39,2,SRF,RA
3,2013-11-26,10:52:00,38.00,PM,F,60.00,Astan,48.7778,-3.9375,12.900,2,35.451,2,5.79,2,7.940,3,0.150,2,6.92,2,0.73,2,0.39,2,3.31,2,78.630,2,7.710,2,0.900,2,999999,9,999999,9,0.36,2,SRF,RA
3,2013-11-26,10:52:00,38.00,PM,S,1.00,Astan,48.7778,-3.9375,12.880,2,35.404,2,5.79,2,7.940,3,0.050,2,6.93,2,0.73,2,0.38,2,3.31,2,80.180,2,5.460,2,0.700,2,6.980,2,-23.290,2,0.21,2,SRF,RA
3,2013-12-11,12:27:00,54.00,PM,F,60.00,Astan,48.7778,-3.9375,12.520,2,35.417,2,5.84,2,7.930,3,0.120,2,5.76,2,0.13,2,0.38,2,2.83,2,70.310,2,6.470,2,0.500,2,999999,9,999999,9,0.46,2,SRF,RA
3,2013-12-11,12:27:00,54.00,PM,S,1.00,Astan,48.7778,-3.9375,12.520,2,35.422,2,5.85,2,7.930,3,0.170,2,5.03,2,0.11,2,0.34,2,2.55,2,119.920,2,12.050,2,1.100,2,6.040,2,-22.570,2,0.22,2,SRF,RA
3,2013-12-23,08:40:00,61.00,PM,F,60.00,Astan,48.7778,-3.9375,12.200,2,35.368,2,6.01,2,7.930,3,0.140,2,5.73,2,0.13,2,0.39,2,2.68,2,218.570,2,30.420,2,2.900,2,999999,9,999999,9,0.43,2,SRF,RA
3,2013-12-23,08:40:00,61.00,PM,S,1.00,Astan,48.7778,-3.9375,12.150,2,35.355,2,6.07,2,7.960,3,0.130,2,5.99,2,0.13,2,0.38,2,2.77,2,162.720,2,19.280,2,2.000,2,7.600,2,-23.090,2,0.51,2,SRF,RA
3,2014-01-10,12:47:00,45.00,PM,F,60.00,Astan,48.7778,-3.9375,11.350,2,35.256,2,6.04,2,7.920,3,0.090,2,7.70,2,0.14,2,0.45,2,3.20,2,75.800,2,6.300,2,1.500,2,999999,9,999999,9,0.28,2,SRF,RA
3,2014-01-10,12:47:00,45.00,PM,S,1.00,Astan,48.7778,-3.9375,11.320,2,35.234,2,6.05,2,7.900,3,0.170,2,7.80,2,0.14,2,0.42,2,3.20,2,74.600,2,6.700,2,1.000,2,5.420,2,-23.240,4,0.27,2,SRF,RA
3,2014-01-24,10:20:00,51.00,PM,F,60.00,Astan,48.7778,-3.9375,10.850,2,35.150,2,6.09,2,7.910,3,0.090,2,8.70,2,0.09,2,0.44,2,3.80,2,289.200,2,39.400,2,6.700,2,999999,9,999999,9,0.45,2,SRF,RA
3,2014-01-24,10:20:00,51.00,PM,S,1.00,Astan,48.7778,-3.9375,10.820,2,35.133,2,6.10,2,7.930,3,0.110,2,9.70,2,0.11,2,0.46,2,4.20,2,271.100,2,27.800,2,5.000,2,6.200,2,-22.480,2,0.40,2,SRF,RA
3,2014-02-10,14:40:00,45.00,PM,F,60.00,Astan,48.7778,-3.9375,10.100,2,34.910,2,6.24,2,7.910,3,0.140,2,9.80,2,0.14,2,0.49,2,4.30,2,209.600,2,26.400,2,4.800,2,999999,9,999999,9,0.42,2,SRF,RA
3,2014-02-10,14:40:00,45.00,PM,S,1.00,Astan,48.7778,-3.9375,10.100,2,34.887,2,6.28,2,7.910,3,0.550,2,10.30,2,0.14,2,0.46,2,4.60,2,202.900,2,25.000,2,5.400,2,5.590,2,-21.680,2,0.42,2,SRF,RA
3,2014-02-24,12:16:00,46.00,PM,F,60.00,Astan,48.7778,-3.9375,10.220,2,34.952,2,6.20,2,7.930,3,0.070,2,9.20,2,0.15,2,0.46,2,4.40,2,125.800,2,13.800,2,3.000,2,999999,9,999999,9,0.42,2,SRF,RA
3,2014-02-24,12:16:00,46.00,PM,S,1.00,Astan,48.7778,-3.9375,10.300,2,34.904,2,6.21,2,7.930,3,0.180,2,9.70,2,0.14,2,0.45,2,4.50,2,107.500,2,11.000,2,3.000,2,4.650,2,-21.770,2,0.45,2,SRF,RA
3,2014-03-10,12:50:00,32.00,PM,F,60.00,Astan,48.7778,-3.9375,10.320,2,34.958,2,6.25,2,7.900,3,0.450,2,11.00,2,0.14,2,0.50,2,5.30,2,187.400,2,21.600,2,4.800,2,999999,9,999999,9,0.52,2,SRF,RA
3,2014-03-10,12:50:00,32.00,PM,S,1.00,Astan,48.7778,-3.9375,10.450,2,34.924,2,6.27,2,7.910,3,0.160,2,11.50,2,0.15,2,0.44,2,5.30,2,124.200,2,12.600,2,3.500,2,5.680,2,-24.120,2,0.55,2,SRF,RA
3,2014-03-25,12:20:00,47.00,PM,F,60.00,Astan,48.7778,-3.9375,10.400,2,34.930,2,6.28,2,7.900,3,0.080,2,9.70,2,0.15,2,0.46,2,4.50,2,149.300,2,18.000,2,4.400,2,999999,9,999999,9,0.76,2,SRF,RA
3,2014-03-25,12:20:00,47.00,PM,S,1.00,Astan,48.7778,-3.9375,10.380,2,34.921,2,6.28,2,7.930,3,0.130,2,9.80,2,0.15,2,0.44,2,4.50,2,136.900,2,15.400,2,2.800,2,5.390,2,-22.690,2,0.76,2,SRF,RA
3,2014-04-08,11:55:00,32.00,PM,F,60.00,Astan,48.7778,-3.9375,10.970,2,34.921,2,6.19,2,7.930,3,0.130,2,10.00,2,0.28,2,0.47,2,4.10,2,55.800,2,5.400,2,1.500,2,999999,9,999999,9,0.52,2,SRF,RA
3,2014-04-08,11:55:00,32.00,PM,S,1.00,Astan,48.7778,-3.9375,11.010,2,34.918,2,6.28,2,7.940,3,0.180,2,9.90,2,0.27,2,0.47,2,4.00,2,71.800,2,6.500,2,1.400,2,5.080,2,-22.150,2,0.52,2,SRF,RA
3,2014-04-23,11:03:00,53.00,PM,F,60.00,Astan,48.7778,-3.9375,11.450,2,34.934,2,6.18,2,7.940,3,0.190,2,9.00,2,0.31,2,0.40,2,2.90,2,62.400,2,7.300,2,1.000,2,999999,9,999999,9,0.71,2,SRF,RA
3,2014-04-23,11:03:00,53.00,PM,S,1.00,Astan,48.7778,-3.9375,11.500,2,34.936,2,6.20,2,7.960,3,0.210,2,8.30,2,0.26,2,0.36,2,2.70,2,120.100,2,11.100,2,1.300,2,5.160,2,-22.450,2,0.65,2,SRF,RA
3,2014-05-07,10:45:00,37.00,PM,F,60.00,Astan,48.7778,-3.9375,12.180,2,34.895,2,6.17,2,7.980,3,0.380,2,6.10,2,0.25,2,0.27,2,2.00,2,41.500,2,7.200,2,0.200,2,999999,9,999999,9,0.67,2,SRF,RA
3,2014-05-07,10:45:00,37.00,PM,S,1.00,Astan,48.7778,-3.9375,12.250,2,34.891,2,6.18,2,7.990,3,0.340,2,6.90,2,0.27,2,0.28,2,2.20,2,70.700,2,7.200,2,0.300,2,9.350,2,-24.150,2,0.66,2,SRF,RA
3,2014-05-22,11:30:00,59.00,PM,F,60.00,Astan,48.7778,-3.9375,12.950,2,34.888,2,6.15,2,7.990,3,0.260,2,5.20,2,0.23,2,0.20,2,1.80,2,96.000,2,12.600,2,0.400,2,999999,9,999999,9,0.92,2,SRF,RA
3,2014-05-22,11:30:00,59.00,PM,S,1.00,Astan,48.7778,-3.9375,13.000,2,34.881,2,6.17,2,8.000,3,0.240,2,5.00,2,0.23,2,0.22,2,1.80,2,112.200,2,12.900,2,1.500,2,4.400,2,-86.170,4,1.20,2,SRF,RA
3,2014-06-05,10:15:00,46.00,PM,F,60.00,Astan,48.7778,-3.9375,13.300,2,34.985,2,6.26,2,8.000,3,0.330,2,3.40,2,0.17,2,0.14,2,1.20,2,124.900,2,18.800,2,1.100,2,999999,9,999999,9,2.29,2,SRF,RA
3,2014-06-05,10:15:00,46.00,PM,S,1.00,Astan,48.7778,-3.9375,13.500,2,34.956,2,6.31,2,8.010,3,0.290,2,3.30,2,0.17,2,0.13,2,1.20,2,132.700,2,18.300,2,0.900,2,5.370,2,-24.260,2,2.35,2,SRF,RA
3,2014-06-20,11:00:00,64.00,PM,F,60.00,Astan,48.7778,-3.9375,14.180,2,35.142,2,6.25,2,8.030,3,0.640,2,1.30,2,0.11,2,0.11,2,0.80,2,149.300,2,28.700,2,0.800,2,999999,9,999999,9,1.22,2,SRF,RA
3,2014-06-20,11:00:00,64.00,PM,S,1.00,Astan,48.7778,-3.9375,14.380,2,35.128,2,6.33,2,8.020,3,0.580,2,1.30,2,0.11,2,0.10,2,0.90,2,112.200,2,14.300,2,1.900,2,6.100,2,-22.980,2,1.22,2,SRF,RA
3,2014-07-07,12:20:00,45.00,PM,F,60.00,Astan,48.7778,-3.9375,14.700,2,35.275,2,6.01,2,8.010,3,0.800,2,0.90,2,0.09,2,0.15,2,1.20,2,98.500,2,13.700,2,1.700,2,999999,9,999999,9,1.17,2,SRF,RA
3,2014-07-07,12:20:00,45.00,PM,S,1.00,Astan,48.7778,-3.9375,14.950,2,35.253,2,6.05,2,8.020,3,0.770,2,0.80,2,0.09,2,0.14,2,1.30,2,95.400,2,10.000,2,0.300,2,3.740,2,-25.530,2,1.62,2,SRF,RA
3,2014-07-21,12:56:00,48.00,PM,F,60.00,Astan,48.7778,-3.9375,15.100,2,35.312,2,5.71,2,8.000,3,1.130,2,1.40,2,0.20,2,0.19,2,2.10,2,64.400,2,7.800,2,0.800,2,999999,9,999999,9,0.63,2,SRF,RA
3,2014-07-21,12:56:00,48.00,PM,S,1.00,Astan,48.7778,-3.9375,15.750,2,35.294,2,999999,9,8.000,3,0.900,2,1.20,2,0.16,2,0.17,2,2.10,2,104.300,2,13.000,2,0.400,2,2.630,2,-34.180,4,1.07,2,SRF,RA
3,2014-08-05,11:17:00,44.00,PM,F,60.00,Astan,48.7778,-3.9375,15.500,2,35.320,2,5.60,2,7.970,3,0.860,2,2.40,2,0.44,2,0.24,2,2.70,2,60.900,2,10.900,2,0.800,2,999999,9,999999,9,0.76,2,SRF,RA
3,2014-08-05,11:17:00,44.00,PM,S,1.00,Astan,48.7778,-3.9375,15.750,2,35.316,2,5.62,2,7.970,3,0.840,2,2.20,2,0.37,2,0.23,2,2.60,2,91.700,2,10.400,2,0.300,2,8.580,2,-23.150,2,0.92,2,SRF,RA
3,2014-08-19,12:28:00,40.00,PM,F,60.00,Astan,48.7778,-3.9375,15.400,2,35.360,2,5.56,2,999999,9,999999,9,3.00,2,0.66,2,0.28,2,2.30,2,76.600,2,9.700,2,3.900,2,999999,9,999999,9,0.94,2,SRF,RA
3,2014-08-19,12:28:00,40.00,PM,S,1.00,Astan,48.7778,-3.9375,15.500,2,35.372,2,5.59,2,999999,9,999999,9,3.00,2,0.64,2,0.27,2,2.40,2,68.200,2,8.800,2,3.600,2,8.750,2,-26.470,2,0.87,2,SRF,RA
3,2014-09-04,11:30:00,43.00,PM,F,60.00,Astan,48.7778,-3.9375,15.500,2,35.377,2,5.46,2,7.970,3,0.160,2,3.70,2,0.89,2,0.29,2,2.50,2,79.000,2,9.400,2,1.100,2,999999,9,999999,9,0.47,2,SRF,RA
3,2014-09-04,11:30:00,43.00,PM,S,1.00,Astan,48.7778,-3.9375,15.700,2,35.377,2,5.49,2,7.970,3,0.220,2,4.00,2,0.95,2,0.30,2,2.80,2,82.900,2,8.600,2,1.900,2,5.680,2,-22.570,2,0.55,2,SRF,RA
3,2014-09-18,12:51:00,36.00,PM,F,60.00,Astan,48.7778,-3.9375,15.850,2,35.385,2,5.46,2,7.940,3,0.130,2,4.40,2,0.56,2,0.34,2,2.60,2,70.300,2,7.800,2,0.500,2,999999,9,999999,9,0.57,2,SRF,RA
3,2014-09-18,12:51:00,36.00,PM,S,1.00,Astan,48.7778,-3.9375,15.900,2,35.378,2,5.45,2,7.930,3,0.210,2,4.20,2,0.50,2,0.33,2,2.40,2,78.700,2,8.400,2,0.100,2,6.920,2,-23.230,2,0.59,2,SRF,RA
3,2014-10-02,10:45:00,45.00,PM,F,60.00,Astan,48.7778,-3.9375,15.300,2,35.406,2,5.41,2,999999,9,999999,9,5.30,2,0.71,2,0.41,2,3.30,2,105.500,2,15.300,2,999999,9,999999,9,999999,9,0.63,2,SRF,RA
3,2014-10-02,10:45:00,45.00,PM,S,1.00,Astan,48.7778,-3.9375,15.350,2,35.400,2,5.42,2,999999,9,999999,9,5.20,2,0.70,2,0.40,2,3.20,2,112.100,2,13.000,2,999999,9,6.247,2,-21.705,2,0.70,2,SRF,RA
3,2014-10-16,10:40:00,35.00,PM,F,60.00,Astan,48.7778,-3.9375,15.250,2,35.371,2,5.41,2,7.960,3,0.130,2,4.90,2,0.72,2,0.38,2,2.80,2,59.700,2,5.300,2,1.700,2,999999,9,999999,9,0.44,2,SRF,RA
3,2014-10-16,10:40:00,35.00,PM,S,1.00,Astan,48.7778,-3.9375,15.250,2,35.372,2,5.41,2,7.950,3,0.130,2,4.80,2,0.71,2,0.39,2,2.80,2,77.400,2,7.500,2,1.900,2,6.436,2,-21.662,2,0.44,2,SRF,RA
3,2014-10-31,10:40:00,52.00,PM,F,60.00,Astan,48.7778,-3.9375,15.220,2,35.388,2,5.42,2,7.940,3,0.090,2,5.20,2,0.41,2,0.38,2,2.90,2,172.800,2,19.600,2,2.000,2,999999,9,999999,9,0.57,2,SRF,RA
3,2014-10-31,10:40:00,52.00,PM,S,1.00,Astan,48.7778,-3.9375,15.280,2,35.376,2,5.41,2,7.960,3,0.120,2,5.20,2,0.40,2,0.38,2,2.90,2,136.500,2,13.500,2,0.900,2,7.390,2,-22.210,2,0.62,2,SRF,RA
3,2014-11-14,10:35:00,40.00,PM,F,60.00,Astan,48.7778,-3.9375,14.380,2,35.333,2,5.52,2,7.950,3,0.080,2,5.80,2,0.34,2,0.38,2,2.90,2,236.200,2,26.900,2,4.400,2,999999,9,999999,9,0.62,2,SRF,RA
3,2014-11-14,10:35:00,40.00,PM,S,1.00,Astan,48.7778,-3.9375,14.450,2,35.340,2,5.51,2,7.940,3,0.090,2,6.20,2,0.36,2,0.38,2,3.10,2,14.600,3,2.000,3,2.000,2,8.847,2,-24.427,2,0.51,2,SRF,RA
3,2014-12-01,12:55:00,59.00,PM,F,60.00,Astan,48.7778,-3.9375,13.850,2,35.171,2,5.52,2,7.940,3,0.070,2,7.00,2,0.30,2,0.36,2,3.80,2,86.200,2,7.900,2,1.200,2,999999,9,999999,9,0.43,2,SRF,RA
3,2014-12-01,12:55:00,59.00,PM,S,1.00,Astan,48.7778,-3.9375,13.850,2,35.165,2,5.53,2,7.930,3,0.110,2,6.80,2,0.30,2,0.35,2,3.80,2,278.700,2,54.500,2,0.800,2,7.668,2,-23.040,2,0.40,2,SRF,RA
3,2014-12-15,11:20:00,38.00,PM,F,60.00,Astan,48.7778,-3.9375,12.870,2,35.101,2,5.85,2,7.950,3,0.260,2,7.20,2,0.15,2,0.38,2,3.90,2,150.500,2,17.500,2,2.700,2,999999,9,999999,9,0.36,2,SRF,RA
3,2014-12-15,11:20:00,38.00,PM,S,1.00,Astan,48.7778,-3.9375,12.980,2,35.105,2,5.83,2,7.940,3,0.070,2,6.70,2,0.10,2,0.37,2,3.70,2,104.300,2,8.300,2,1.200,2,6.637,2,-24.308,2,0.34,2,SRF,RA
3,2015-01-14,10:55:00,40.00,PM,F,60.00,Astan,48.7778,-3.9375,12.250,2,35.095,2,6.08,2,7.920,8,0.080,2,6.90,2,0.13,2,0.37,2,3.80,2,148.040,2,16.320,2,2.900,2,999999,9,999999,9,0.49,2,SRF,RA
3,2015-01-14,10:55:00,40.00,PM,S,1.00,Astan,48.7778,-3.9375,12.200,2,35.086,2,6.08,2,7.920,8,0.090,2,7.00,2,0.13,2,0.35,2,3.90,2,143.740,2,16.600,2,2.800,2,6.810,2,-22.010,2,0.45,2,SRF,RA
3,2015-01-28,11:25:00,52.00,PM,F,60.00,Astan,48.7778,-3.9375,11.600,2,35.133,2,6.06,2,7.960,8,0.090,2,6.02,2,0.09,2,0.32,2,3.16,2,94.170,2,11.000,2,2.500,2,999999,9,999999,9,0.51,2,SRF,RA
3,2015-01-28,11:25:00,52.00,PM,S,1.00,Astan,48.7778,-3.9375,11.600,2,35.122,2,6.07,2,7.980,8,0.100,2,5.88,2,0.08,2,0.32,2,3.12,2,92.320,2,8.990,2,1.500,2,5.770,2,-22.220,2,0.50,2,SRF,RA
3,2015-02-12,10:25:00,44.00,PM,F,60.00,Astan,48.7778,-3.9375,10.200,2,35.085,2,6.25,2,7.930,8,0.110,2,7.91,2,0.14,2,0.36,2,3.92,2,97.380,2,9.670,2,1.800,2,999999,9,999999,9,0.53,2,SRF,RA
3,2015-02-12,10:25:00,44.00,PM,S,1.00,Astan,48.7778,-3.9375,10.150,2,35.084,2,6.26,2,7.920,8,0.130,2,7.87,2,0.15,2,0.33,2,3.96,2,93.240,2,8.700,2,1.400,2,7.220,2,-23.630,2,0.54,2,SRF,RA
3,2015-02-27,11:25:00,40.00,PM,F,60.00,Astan,48.7778,-3.9375,10.180,2,35.158,2,6.33,2,7.920,8,0.150,2,6.63,2,0.17,2,0.39,2,2.86,2,220.590,2,27.000,2,5.200,2,999999,9,999999,9,0.82,2,SRF,RA
3,2015-02-27,12:25:00,40.00,PM,S,1.00,Astan,48.7778,-3.9375,10.180,2,35.152,2,6.33,2,7.920,8,0.110,2,6.76,2,0.16,2,0.36,2,2.90,2,124.130,2,15.690,2,3.100,2,3.640,2,-21.480,2,0.69,2,SRF,RA
3,2015-03-13,09:55:00,50.00,PM,F,60.00,Astan,48.7778,-3.9375,10.200,2,35.164,2,6.37,2,7.960,8,0.130,2,8.17,2,0.23,2,0.42,2,3.00,2,166.030,2,20.260,2,2.900,2,999999,9,999999,9,0.89,2,SRF,RA
3,2015-03-13,09:55:00,50.00,PM,S,1.00,Astan,48.7778,-3.9375,10.150,2,35.167,2,6.38,2,7.980,8,0.140,2,8.16,2,0.24,2,0.39,2,3.05,2,125.260,2,14.410,2,2.400,2,5.530,2,-22.810,2,0.76,2,SRF,RA
3,2015-03-27,10:25:00,48.00,PM,F,60.00,Astan,48.7778,-3.9375,10.050,2,35.180,2,6.43,2,7.960,8,0.110,2,7.88,2,0.25,2,0.36,2,2.43,2,167.540,2,23.730,2,4.700,2,999999,9,999999,9,1.66,2,SRF,RA
3,2015-03-27,10:25:00,48.00,PM,S,1.00,Astan,48.7778,-3.9375,10.050,2,35.167,2,6.43,2,7.990,8,0.100,2,6.65,2,0.22,2,0.34,2,2.12,2,154.990,2,19.760,2,2.600,2,8.540,2,-23.040,2,1.53,2,SRF,RA
3,2015-04-13,12:20:00,47.00,PM,F,60.00,Astan,48.7778,-3.9375,10.700,2,35.249,2,6.56,2,7.950,8,0.220,2,5.55,2,0.20,2,0.29,2,0.78,2,215.880,2,24.180,2,1.400,2,999999,9,999999,9,2.06,2,SRF,RA
3,2015-04-13,12:20:00,47.00,PM,S,1.00,Astan,48.7778,-3.9375,10.850,2,35.239,2,6.64,2,7.970,8,0.180,2,6.02,2,0.22,2,0.31,2,0.78,2,159.940,2,21.050,2,1.500,2,4.290,2,-22.160,2,2.20,2,SRF,RA
3,2015-04-27,12:20:00,37.00,PM,F,60.00,Astan,48.7778,-3.9375,11.400,2,35.281,2,6.47,2,7.980,8,0.300,2,4.61,2,0.17,2,0.26,2,0.44,2,69.730,2,8.360,2,0.200,2,999999,9,999999,9,0.67,2,SRF,RA
3,2015-04-27,12:20:00,37.00,PM,S,1.00,Astan,48.7778,-3.9375,11.600,2,35.272,2,6.54,2,8.000,8,0.290,2,4.45,2,0.18,2,0.25,2,0.43,2,68.330,2,8.200,2,0.200,2,8.920,2,-22.880,2,0.63,2,SRF,RA
3,2015-05-12,11:55:00,54.00,PM,F,60.00,Astan,48.7778,-3.9375,12.180,2,35.258,2,6.22,2,7.980,8,1.050,2,2.37,2,0.15,2,0.22,2,0.83,2,94.530,2,13.330,2,0.700,2,999999,9,999999,9,0.69,2,SRF,RA
3,2015-05-12,11:55:00,54.00,PM,S,1.00,Astan,48.7778,-3.9375,12.350,2,35.255,2,5.99,3,7.970,8,1.000,2,2.29,2,0.15,2,0.22,2,0.86,2,90.320,2,12.130,2,0.900,2,4.930,2,-23.080,2,0.81,2,SRF,RA
3,2015-05-26,11:30:00,40.00,PM,F,60.00,Astan,48.7778,-3.9375,12.850,2,35.237,2,6.22,2,7.990,8,0.400,3,2.37,2,0.14,2,0.16,2,0.94,2,119.480,2,18.500,2,0.800,2,999999,9,999999,9,1.26,2,SRF,RA
3,2015-05-26,11:30:00,40.00,PM,S,1.00,Astan,48.7778,-3.9375,13.070,2,35.235,2,6.30,2,8.010,8,1.170,2,2.10,2,0.14,2,0.15,2,0.87,2,122.210,2,17.310,2,0.900,2,7.310,2,-22.530,2,1.64,2,SRF,RA
3,2015-06-09,10:15:00,66.00,PM,F,60.00,Astan,48.7778,-3.9375,13.300,2,35.264,2,6.07,2,7.980,8,0.540,2,1.85,2,0.11,2,0.16,2,1.16,2,114.060,2,17.360,2,1.100,2,999999,9,999999,9,1.05,2,SRF,RA
3,2015-06-09,10:15:00,66.00,PM,S,1.00,Astan,48.7778,-3.9375,13.300,2,35.265,2,6.09,2,8.000,8,0.490,2,1.87,2,0.11,2,0.16,2,1.19,2,95.610,2,14.020,2,0.900,2,7.850,2,-22.780,2,1.05,2,SRF,RA
3,2015-06-24,11:00:00,46.00,PM,F,60.00,Astan,48.7778,-3.9375,13.850,2,35.285,2,6.06,2,7.990,8,0.570,2,1.90,2,0.15,2,0.17,2,1.60,2,137.880,2,28.500,2,0.500,2,999999,9,999999,9,0.45,2,SRF,RA
3,2015-06-24,11:00:00,46.00,PM,S,1.00,Astan,48.7778,-3.9375,14.250,2,35.275,2,6.12,2,8.000,8,0.420,2,1.90,2,0.15,2,0.17,2,1.60,2,99.310,2,12.700,2,0.300,2,7.740,2,-23.390,2,0.78,2,SRF,RA
3,2015-07-10,11:50:00,60.00,PM,F,60.00,Astan,48.7778,-3.9375,14.650,2,35.331,2,6.25,2,8.000,8,0.370,2,0.43,2,0.08,2,0.10,2,0.98,2,114.450,2,15.990,2,0.600,2,999999,9,999999,9,1.27,2,SRF,RA
3,2015-07-10,11:50:00,60.00,PM,S,1.00,Astan,48.7778,-3.9375,14.800,2,35.321,2,6.28,2,8.010,8,0.290,2,0.39,2,0.08,2,0.12,2,1.02,2,109.260,2,15.810,2,0.500,2,4.900,2,-23.910,2,1.43,2,SRF,RA
3,2015-07-24,10:32:00,44.00,PM,F,60.00,Astan,48.7778,-3.9375,15.100,2,35.328,2,5.97,2,8.000,8,0.680,2,0.86,2,0.11,2,0.17,2,1.04,2,90.770,2,11.930,2,0.900,2,999999,9,999999,9,0.44,2,SRF,RA
3,2015-07-24,10:32:00,44.00,PM,S,1.00,Astan,48.7778,-3.9375,15.280,2,35.295,2,5.97,2,8.020,8,0.600,2,0.86,2,0.12,2,0.16,2,1.14,2,111.900,2,13.260,2,0.200,2,9.260,2,-23.890,2,1.07,2,SRF,RA
3,2015-08-10,14:50:00,54.00,PM,F,60.00,Astan,48.7778,-3.9375,15.500,2,35.332,2,5.71,2,999999,9,0.860,2,1.51,2,0.20,2,0.22,2,1.44,2,75.440,2,10.930,2,3.600,2,999999,9,999999,9,0.47,2,SRF,RA
3,2015-08-10,14:50:00,54.00,PM,S,1.00,Astan,48.7778,-3.9375,15.600,2,35.330,2,5.76,2,999999,9,0.890,2,1.49,2,0.20,2,0.22,2,1.47,2,111.420,2,14.160,2,5.900,2,999999,9,999999,9,0.53,2,SRF,RA
3,2015-08-24,11:30:00,36.00,PM,F,60.00,Astan,48.7778,-3.9375,15.800,2,35.279,2,999999,9,999999,9,0.850,2,2.06,2,0.30,2,0.24,2,1.95,2,96.370,2,10.420,2,0.500,2,999999,9,999999,9,0.40,2,SRF,RA
3,2015-08-24,11:30:00,36.00,PM,S,1.00,Astan,48.7778,-3.9375,15.800,2,35.275,2,999999,9,999999,9,0.710,2,2.13,2,0.30,2,0.25,2,2.73,2,69.000,2,9.000,2,0.200,2,8.470,2,-25.970,2,0.44,2,SRF,RA
3,2015-09-07,12:17:00,43.00,PM,F,60.00,Astan,48.7778,-3.9375,15.450,2,35.264,2,5.57,2,7.970,8,0.260,2,3.34,2,0.67,2,0.29,2,999999,9,89.270,2,10.530,2,0.400,2,999999,9,999999,9,1.00,2,SRF,RA
3,2015-09-07,12:17:00,43.00,PM,S,1.00,Astan,48.7778,-3.9375,15.550,2,35.267,2,5.60,2,7.980,8,0.260,2,3.26,2,0.66,2,0.29,2,2.12,2,83.320,2,10.330,2,0.200,2,6.610,2,-23.710,2,1.07,2,SRF,RA
3,2015-09-21,10:30:00,42.00,PM,F,60.00,Astan,48.7778,-3.9375,14.780,2,35.278,2,5.52,2,7.970,8,0.210,2,4.06,2,0.69,2,0.33,2,2.19,2,80.290,2,10.260,2,0.600,2,999999,9,999999,9,0.41,2,SRF,RA
3,2015-09-21,10:30:00,42.00,PM,S,1.00,Astan,48.7778,-3.9375,14.880,2,35.271,2,5.56,2,7.940,8,0.240,2,3.94,2,0.67,2,0.33,2,2.44,2,78.760,2,10.640,2,0.600,2,7.080,2,-23.270,2,0.70,2,SRF,RA
3,2015-10-06,12:00:00,39.00,PM,F,60.00,Astan,48.7778,-3.9375,14.600,2,35.315,2,5.50,2,7.930,8,0.110,2,4.60,2,0.64,2,0.41,2,2.70,2,69.540,2,8.000,2,0.400,2,999999,9,999999,9,0.44,2,SRF,RA
3,2015-10-06,12:00:00,39.00,PM,S,1.00,Astan,48.7778,-3.9375,14.700,2,35.295,2,5.51,2,7.930,8,0.290,2,4.50,2,0.62,2,0.37,2,2.70,2,74.400,2,7.860,2,1.000,2,6.200,2,-24.300,2,0.49,2,SRF,RA
3,2015-10-21,10:50:00,41.00,PM,F,60.00,Astan,48.7778,-3.9375,14.200,2,35.342,2,5.58,2,7.950,8,0.180,2,5.20,2,0.67,2,0.39,2,2.90,2,70.250,2,8.720,2,0.500,2,999999,9,999999,9,0.59,2,SRF,RA
3,2015-10-21,10:50:00,41.00,PM,S,1.00,Astan,48.7778,-3.9375,14.200,2,35.347,2,5.60,2,7.950,8,0.170,2,5.00,2,0.66,2,0.37,2,2.90,2,62.180,2,6.610,2,0.400,2,8.500,2,-22.950,2,0.59,2,SRF,RA
3,2015-11-04,11:34:00,39.00,PM,S,1.00,Astan,48.7778,-3.9375,14.300,2,35.348,2,5.52,2,7.900,8,0.120,2,5.40,2,0.65,2,0.38,2,2.90,2,85.550,2,8.590,2,0.900,2,5.940,2,-22.740,2,0.46,2,SRF,RA
3,2015-11-04,11:43:00,39.00,PM,F,60.00,Astan,48.7778,-3.9375,14.300,2,35.352,2,5.51,2,7.900,8,0.090,2,5.60,2,0.67,2,0.41,2,3.00,2,102.850,2,11.330,2,1.000,2,999999,9,999999,9,0.48,2,SRF,RA
3,2015-11-20,11:39:00,51.00,PM,F,60.00,Astan,48.7778,-3.9375,14.150,2,35.392,2,5.69,2,7.890,0,0.070,2,5.10,2,0.38,2,0.35,2,2.60,2,81.900,2,13.400,2,1.100,2,999999,9,999999,9,0.42,2,SRF,RA
3,2015-11-20,11:39:00,51.00,PM,S,1.00,Astan,48.7778,-3.9375,14.120,2,35.332,2,5.70,2,7.880,0,0.100,2,5.80,2,0.46,2,0.38,2,2.90,2,98.400,2,13.400,2,0.500,2,7.130,2,-21.840,2,0.43,2,SRF,RA
3,2015-12-04,11:43:00,39.00,PM,F,60.00,Astan,48.7778,-3.9375,13.450,2,35.361,2,5.83,2,7.920,0,0.040,2,5.80,2,0.20,2,0.38,2,2.90,2,121.900,2,18.100,2,2.800,2,999999,9,999999,9,0.31,2,SRF,RA
3,2015-12-04,11:43:00,39.00,PM,S,1.00,Astan,48.7778,-3.9375,13.550,2,35.360,2,5.83,2,7.920,0,0.030,2,5.20,2,0.16,2,0.35,2,2.70,2,68.000,2,6.800,2,2.300,2,8.480,2,-23.470,2,0.36,2,SRF,RA
3,2015-12-17,09:15:00,69.00,PM,F,60.00,Astan,48.7778,-3.9375,13.300,2,35.379,2,5.84,2,7.930,0,0.020,2,5.60,2,0.12,2,0.39,2,2.90,2,94.600,2,16.000,2,0.900,2,999999,9,999999,9,0.34,2,SRF,RA
3,2015-12-17,09:15:00,69.00,PM,S,1.00,Astan,48.7778,-3.9375,13.300,2,35.375,2,5.84,2,7.920,0,0.040,2,5.50,2,0.11,2,0.37,2,2.90,2,75.400,2,13.500,2,0.700,2,6.140,2,-21.780,2,0.35,2,SRF,RA
3,2016-01-04,12:40:00,38.00,PM,F,60.00,Astan,48.7778,-3.9375,12.450,2,35.315,2,5.94,2,7.920,3,0.090,2,6.70,2,0.21,2,0.43,2,3.10,2,117.050,2,32.390,2,3.300,2,999999,9,999999,9,0.40,2,SRF,RA
3,2016-01-04,12:40:00,38.00,PM,S,1.00,Astan,48.7778,-3.9375,12.450,2,35.313,2,5.97,2,7.900,3,0.140,2,6.80,2,0.21,2,0.43,2,3.10,2,151.070,2,25.300,2,2.300,2,7.460,2,-22.250,2,0.40,2,SRF,RA
3,2016-01-18,12:00:00,57.00,PM,F,60.00,Astan,48.7778,-3.9375,11.450,2,35.231,2,6.02,2,7.900,3,0.070,2,7.60,2,0.14,2,0.42,2,3.70,2,82.830,2,11.060,2,1.000,2,999999,9,999999,9,0.37,2,SRF,RA
3,2016-01-18,12:00:00,57.00,PM,S,1.00,Astan,48.7778,-3.9375,11.400,2,35.232,2,6.03,2,7.880,3,0.080,2,7.50,2,0.13,2,0.41,2,3.80,2,73.420,2,9.070,2,1.200,2,8.210,2,-22.980,2,0.37,2,SRF,RA
3,2016-02-02,11:45:00,35.00,PM,F,60.00,Astan,48.7778,-3.9375,11.420,2,35.162,2,6.15,2,7.880,3,0.070,2,5.90,2,0.11,2,0.35,2,2.80,2,999999,9,999999,9,3.300,2,999999,9,999999,9,0.46,2,SRF,RA
3,2016-02-02,11:45:00,35.00,PM,S,1.00,Astan,48.7778,-3.9375,11.400,2,35.134,2,6.17,2,7.820,3,0.100,2,6.90,2,0.13,2,0.37,2,3.30,2,133.980,2,19.600,2,2.200,2,6.430,2,-22.780,2,0.56,2,SRF,RA
3,2016-02-17,13:10:00,49.00,PM,F,60.00,Astan,48.7778,-3.9375,10.880,2,35.090,2,6.15,2,7.890,3,0.090,2,8.40,2,0.18,2,0.42,2,3.90,2,361.900,2,62.620,2,6.900,2,999999,9,999999,9,0.64,2,SRF,RA
3,2016-02-17,13:10:00,49.00,PM,S,1.00,Astan,48.7778,-3.9375,10.850,2,35.073,2,6.16,2,7.830,3,0.120,2,8.40,2,0.17,2,0.43,2,3.90,2,201.100,2,33.580,2,4.200,2,7.550,2,-22.820,2,0.65,2,SRF,RA
3,2016-03-04,13:35:00,40.00,PM,F,60.00,Astan,48.7778,-3.9375,10.500,2,35.104,2,6.30,2,7.880,3,0.120,2,8.70,2,0.19,2,0.45,2,3.80,2,192.630,2,32.270,2,11.400,2,999999,9,999999,9,0.65,2,SRF,RA
3,2016-03-04,13:35:00,40.00,PM,S,1.00,Astan,48.7778,-3.9375,10.450,2,35.095,2,6.31,2,7.850,3,0.140,2,7.40,2,0.17,2,0.40,2,3.20,2,151.140,2,24.930,2,9.600,2,7.220,2,-21.900,2,0.61,2,SRF,RA
3,2016-03-17,12:45:00,44.00,PM,F,60.00,Astan,48.7778,-3.9375,10.350,2,35.106,2,6.32,2,7.890,3,0.130,2,7.20,2,0.16,2,0.40,2,2.90,2,168.010,2,25.390,2,4.100,2,999999,9,999999,9,0.71,2,SRF,RA
3,2016-03-17,12:45:00,44.00,PM,S,1.00,Astan,48.7778,-3.9375,10.350,2,35.096,2,6.33,2,7.860,3,0.160,2,7.20,2,0.16,2,0.37,2,3.00,2,113.560,2,18.810,2,2.500,2,8.420,2,-22.660,2,0.66,2,SRF,RA
3,2016-04-01,11:35:00,36.00,PM,F,60.00,Astan,48.7778,-3.9375,10.300,2,35.125,2,6.32,2,7.900,3,0.130,2,7.00,2,0.20,2,0.38,2,2.50,2,84.780,2,15.470,2,1.000,2,999999,9,999999,9,0.61,2,SRF,RA
3,2016-04-01,11:35:00,36.00,PM,S,1.00,Astan,48.7778,-3.9375,10.350,2,35.113,2,6.35,2,7.890,3,0.190,2,7.60,2,0.21,2,0.39,2,2.70,2,103.900,2,19.330,2,1.200,2,6.720,2,-22.990,2,0.66,2,SRF,RA
3,2016-04-15,12:20:00,43.00,PM,F,60.00,Astan,48.7778,-3.9375,10.800,2,35.141,2,6.36,2,7.900,3,0.170,2,6.90,2,0.21,2,0.35,2,1.40,2,65.750,2,14.080,2,0.500,2,999999,9,999999,9,0.77,2,SRF,RA
3,2016-04-15,12:20:00,43.00,PM,S,1.00,Astan,48.7778,-3.9375,10.800,2,35.143,2,6.37,2,7.860,3,0.190,2,6.60,2,0.20,2,0.34,2,1.40,2,75.390,2,14.600,2,1.100,2,5.810,2,-21.970,2,0.94,2,SRF,RA
3,2016-04-29,09:50:00,49.00,PM,F,60.00,Astan,48.7778,-3.9375,11.100,2,35.189,2,6.42,2,7.930,3,0.370,2,4.30,2,0.16,2,0.24,2,0.38,2,128.200,2,18.390,2,1.100,2,999999,9,999999,9,1.07,2,SRF,RA
3,2016-04-29,09:50:00,49.00,PM,S,1.00,Astan,48.7778,-3.9375,11.100,2,35.197,2,6.46,2,7.930,3,0.300,2,3.93,2,0.15,2,0.22,2,0.37,2,97.450,2,11.280,2,0.900,2,7.640,2,-22.430,2,1.10,2,SRF,RA
3,2016-05-13,10:40:00,53.00,PM,F,60.00,Astan,48.7778,-3.9375,11.850,2,35.179,2,6.29,2,7.950,3,0.410,2,3.24,2,0.17,2,0.21,2,0.98,2,53.760,2,3.970,2,0.300,2,999999,9,999999,9,0.59,2,SRF,RA
3,2016-05-13,10:40:00,53.00,PM,S,1.00,Astan,48.7778,-3.9375,11.900,2,35.179,2,6.30,2,7.960,3,0.370,2,3.26,2,0.17,2,0.20,2,0.98,2,62.090,2,7.110,2,0.500,2,6.390,2,-23.190,2,0.62,2,SRF,RA
3,2016-05-30,11:50:00,53.00,PM,F,60.00,Astan,48.7778,-3.9375,12.850,2,35.171,2,6.29,2,7.990,3,0.350,2,2.40,2,0.17,2,0.18,2,1.29,2,164.160,2,15.620,2,0.400,2,999999,9,999999,9,1.65,2,SRF,RA
3,2016-05-30,11:50:00,53.00,PM,S,1.00,Astan,48.7778,-3.9375,12.950,2,35.168,2,6.35,2,8.000,3,0.260,2,1.87,2,0.14,2,0.15,2,1.10,2,81.400,2,17.160,2,0.300,2,7.530,2,-24.610,2,1.83,2,SRF,RA
3,2016-06-14,12:53:00,43.00,PM,F,60.00,Astan,48.7778,-3.9375,13.600,2,35.160,2,6.19,2,7.970,3,1.070,2,0.91,2,0.09,2,0.15,2,1.06,2,103.960,2,14.640,2,0.200,2,999999,9,999999,9,0.31,2,SRF,RA
3,2016-06-14,12:53:00,43.00,PM,S,1.00,Astan,48.7778,-3.9375,13.750,2,35.158,2,6.19,2,7.980,3,1.070,2,0.80,2,0.09,2,0.14,2,1.04,2,77.350,2,8.260,2,0.300,2,7.690,2,-23.640,2,0.36,2,SRF,RA
3,2016-06-28,11:00:00,60.00,PM,F,60.00,Astan,48.7778,-3.9375,14.300,2,35.178,2,6.04,2,8.010,3,0.920,2,1.28,2,0.14,2,0.17,2,1.53,2,87.370,2,10.360,2,1.400,2,999999,9,999999,9,0.88,2,SRF,RA
3,2016-06-28,11:00:00,60.00,PM,S,1.00,Astan,48.7778,-3.9375,14.400,2,35.170,2,6.05,2,8.020,3,0.790,2,1.33,2,0.15,2,0.19,2,1.69,2,137.380,2,15.550,2,0.200,2,6.620,2,-22.870,2,1.11,2,SRF,RA
3,2016-07-13,11:38:00,39.00,PM,F,60.00,Astan,48.7778,-3.9375,14.850,2,35.195,2,5.97,2,8.000,3,0.580,2,1.52,2,0.17,2,0.19,2,1.60,2,91.060,2,10.070,2,0.700,2,999999,9,999999,9,0.87,2,SRF,RA
3,2016-07-13,11:38:00,39.00,PM,S,1.00,Astan,48.7778,-3.9375,15.050,2,35.191,2,5.96,2,8.010,3,0.550,2,1.39,2,0.15,2,0.16,2,1.46,2,110.830,2,12.250,2,1.500,2,9.880,2,-22.280,2,1.01,2,SRF,RA
3,2016-07-28,11:46:00,58.00,PM,F,60.00,Astan,48.7778,-3.9375,15.250,2,35.225,2,5.99,2,7.980,3,0.810,2,0.77,2,0.12,2,0.16,2,0.66,2,90.230,2,10.360,2,0.400,2,999999,9,999999,9,1.00,2,SRF,RA
3,2016-07-28,11:46:00,58.00,PM,S,1.00,Astan,48.7778,-3.9375,15.400,2,35.225,2,6.03,2,8.000,3,0.590,2,0.75,2,0.12,2,0.17,2,0.74,2,143.000,2,13.450,2,1.400,2,6.540,2,-23.730,2,1.24,2,SRF,RA
3,2016-08-12,11:23:00,34.00,PM,F,60.00,Astan,48.7778,-3.9375,15.380,2,35.263,2,999999,9,999999,9,999999,9,1.71,2,0.34,2,0.20,2,1.63,2,999999,9,999999,9,999999,9,999999,9,999999,9,999999,9,SRF,RA
3,2016-08-12,11:23:00,34.00,PM,S,1.00,Astan,48.7778,-3.9375,15.560,2,35.261,2,999999,9,999999,9,999999,9,1.62,2,0.31,2,0.21,2,1.66,2,999999,9,999999,9,999999,9,999999,9,999999,9,999999,9,SRF,RA
3,2016-08-26,11:30:00,53.00,PM,F,60.00,Astan,48.7778,-3.9375,15.620,2,35.296,2,5.58,2,7.970,3,0.190,2,3.06,2,0.90,2,0.23,2,2.08,2,66.700,2,7.400,2,0.800,2,999999,9,999999,9,0.70,2,SRF,RA
3,2016-08-26,11:30:00,53.00,PM,S,1.00,Astan,48.7778,-3.9375,15.750,2,35.293,2,5.60,2,7.980,3,0.200,2,2.69,2,0.81,2,0.22,2,1.90,2,94.950,2,10.630,2,0.100,2,7.560,2,-25.150,2,0.88,2,SRF,RA
3,2016-09-09,10:00:00,40.00,PM,F,60.00,Astan,48.7778,-3.9375,15.500,2,35.337,2,5.59,2,7.950,3,0.160,2,3.42,2,0.65,2,0.27,2,2.32,2,83.820,2,8.910,2,0.400,2,999999,9,999999,9,0.50,2,SRF,RA
3,2016-09-09,10:00:00,40.00,PM,S,1.00,Astan,48.7778,-3.9375,15.800,2,35.338,2,5.65,2,7.970,3,0.270,2,3.30,2,0.69,2,0.27,2,2.32,2,108.240,2,10.840,2,0.700,2,7.190,2,-22.980,2,0.56,2,SRF,RA
3,2016-09-23,10:10:00,61.00,PM,F,60.00,Astan,48.7778,-3.9375,15.500,2,35.344,2,5.46,2,7.950,3,0.170,2,4.33,2,0.69,2,0.33,2,2.63,2,88.750,2,11.480,2,1.100,2,999999,9,999999,9,0.60,2,SRF,RA
3,2016-09-23,10:10:00,61.00,PM,S,1.00,Astan,48.7778,-3.9375,15.580,2,35.342,2,5.48,2,7.930,3,0.270,2,4.66,2,0.76,2,0.38,2,2.84,2,93.100,2,12.220,2,1.200,2,8.040,2,-23.100,2,0.65,2,SRF,RA
3,2016-10-10,11:35:00,32.00,PM,F,60.00,Astan,48.7778,-3.9375,14.950,2,35.367,2,5.45,2,7.930,3,0.160,2,4.27,2,0.52,2,0.34,2,2.30,2,71.480,2,6.440,2,0.400,2,999999,9,999999,9,0.41,2,SRF,RA
3,2016-10-10,11:35:00,32.00,PM,S,1.00,Astan,48.7778,-3.9375,14.950,2,35.378,2,5.48,2,7.930,3,0.260,2,4.19,2,0.51,2,0.30,2,2.37,2,100.280,2,7.940,2,0.500,2,8.420,2,-23.280,2,0.53,2,SRF,RA
3,2016-10-24,12:15:00,45.00,PM,F,60.00,Astan,48.7778,-3.9375,14.320,2,35.372,2,5.57,2,7.930,3,0.140,2,4.47,2,0.50,2,0.34,2,2.35,2,103.430,2,11.230,2,2.900,2,999999,9,999999,9,0.56,2,SRF,RA
3,2016-10-24,12:15:00,45.00,PM,S,1.00,Astan,48.7778,-3.9375,14.350,2,35.372,2,5.57,2,7.930,3,0.170,2,5.60,2,0.61,2,0.40,2,2.79,2,98.010,2,8.750,2,1.100,2,6.180,2,-22.780,2,0.67,2,SRF,RA
3,2016-11-08,11:30:00,38.00,PM,F,60.00,Astan,48.7778,-3.9375,13.750,2,35.400,2,5.61,2,7.930,3,0.120,2,4.84,2,0.57,2,0.35,2,2.47,2,66.240,2,6.850,2,0.500,2,999999,9,999999,9,0.47,2,SRF,RA
3,2016-11-08,11:30:00,38.00,PM,S,1.00,Astan,48.7778,-3.9375,13.750,2,35.400,2,5.60,2,7.920,3,0.120,2,5.36,2,0.63,2,0.36,2,2.63,2,73.520,2,5.660,2,0.500,2,8.400,2,-23.940,2,0.55,2,SRF,RA
3,2016-11-22,11:35:00,46.00,PM,F,60.00,Astan,48.7778,-3.9375,13.100,2,35.375,2,5.71,2,7.960,3,0.130,2,6.00,2,0.56,2,0.39,2,3.06,2,132.950,2,13.740,2,1.200,2,999999,9,999999,9,0.43,2,SRF,RA
3,2016-11-22,11:35:00,46.00,PM,S,1.00,Astan,48.7778,-3.9375,13.100,2,35.374,2,5.73,2,7.990,3,0.170,2,6.05,2,0.54,2,0.41,2,3.00,2,102.070,2,11.140,2,1.400,2,7.880,2,-22.910,2,0.49,2,SRF,RA
3,2016-12-07,10:40:00,49.00,PM,F,60.00,Astan,48.7778,-3.9375,12.190,2,35.421,2,5.87,2,7.920,3,0.150,2,6.31,2,0.37,2,0.38,2,2.99,2,80.630,2,6.250,2,0.500,2,999999,9,999999,9,0.49,2,SRF,RA
3,2016-12-07,10:40:00,49.00,PM,S,1.00,Astan,48.7778,-3.9375,12.220,2,35.423,2,5.88,2,7.920,3,0.120,2,6.27,2,0.37,2,0.41,2,2.97,2,67.140,2,5.690,2,0.700,2,7.910,2,-23.140,2,0.46,2,SRF,RA
3,2016-12-22,11:45:00,43.00,PM,F,60.00,Astan,48.7778,-3.9375,12.000,2,35.427,2,5.96,2,7.900,3,999999,9,6.40,2,0.20,2,0.40,2,2.70,2,155.290,2,23.080,2,2.500,2,999999,9,999999,9,0.37,2,SRF,RA
3,2016-12-22,11:45:00,43.00,PM,S,1.00,Astan,48.7778,-3.9375,12.050,2,35.440,2,5.92,2,7.900,3,999999,9,6.30,2,0.20,2,0.39,2,2.70,2,80.710,2,6.040,2,1.100,2,6.750,2,-22.000,2,0.41,2,SRF,RA
